<?xml version="1.0" encoding="utf-8"?>
<!-- Generator: Adobe Illustrator 18.0.0, SVG Export Plug-In . SVG Version: 6.00 Build 0)  -->
<!DOCTYPE svg PUBLIC "-//W3C//DTD SVG 1.1//EN" "http://www.w3.org/Graphics/SVG/1.1/DTD/svg11.dtd">
<svg version="1.1" id="Layer_1" xmlns="http://www.w3.org/2000/svg" xmlns:xlink="http://www.w3.org/1999/xlink" x="0px" y="0px"
	 viewBox="0 0 45 45" enable-background="new 0 0 45 45" xml:space="preserve">
	<style type="text/css">
			@import "../default/default/svg.css";
	</style>
	 <script type="text/javascript">
         <![CDATA[
             if(window.parent && window.parent.Wincor && window.parent.Wincor.UI && window.parent.Wincor.UI.Content) {
                 let styleRes = window.parent.Wincor.UI.Content.StyleResourceResolver;
                 if(styleRes) {
                 	let style = document.getElementsByTagName("style")[0];
                   	style.innerHTML = style.innerHTML.replace("default/svg.css", styleRes.type() + "svg.css");
                    styleRes = null;
                 }
             }
         ]]>
    </script>
<g class="shadowGroup1">
	<polyline fill="none" stroke="#000000" stroke-linecap="round" stroke-miterlimit="10" enable-background="new    " points="
		5.1,38 24.8,4.5 44.5,39.5 	"/>
	<polyline fill="none" stroke="#000000" stroke-linecap="round" stroke-miterlimit="10" enable-background="new    " points="
		12.5,43.7 24.7,19.0 37.0,43.7 	"/>
</g>
<g class="shadowGroup2">
	<polyline fill="none" stroke="#000000" stroke-linecap="round" stroke-miterlimit="10" enable-background="new    " points="
		4,37.1 23.7,3.6 43.4,38.6 	"/>
	<polyline fill="none" stroke="#000000" stroke-linecap="round" stroke-miterlimit="10" enable-background="new    " points="
		11.5,42.7 23.7,18.0 36.0,42.7 	"/>
</g>
<g class="shadowGroup3">
	<polyline fill="none" stroke="#000000" stroke-linecap="round" stroke-miterlimit="10" enable-background="new    " points="
		3,36.1 22.7,2.6 42.4,37.7 	"/>
	<polyline fill="none" stroke="#000000" stroke-linecap="round" stroke-miterlimit="10" enable-background="new    " points="
		10.5,41.7 22.7,17.0 35.0,41.7 	"/>
</g>
<g>
	<polyline class="strokeColor" stroke-linecap="round" stroke-miterlimit="10" points="2,34.7 21.7,1.2 41.4,36.2 	"/>
	<polyline class="strokeColor" stroke-linecap="round" stroke-miterlimit="10" points="9.5,40.7 21.7,16.0 34.0,40.7 	"/>

</g>

</svg>
