<svg width="56" height="56" viewBox="0 0 56 56" fill="none" xmlns="http://www.w3.org/2000/svg">
<path fill-rule="evenodd" clip-rule="evenodd" d="M23.657 36.6108L16.979 29.6108C16.8786 29.5058 16.8296 29.3752 16.7526 29.2585C16.6686 29.1325 16.5683 29.0205 16.51 28.8805C16.3956 28.5982 16.3326 28.2995 16.3326 28.0008C16.3326 27.6952 16.3956 27.3918 16.5123 27.1072C16.6313 26.8225 16.8016 26.5635 17.0186 26.3488L24.0163 19.3512C24.9286 18.4388 26.4056 18.4388 27.3156 19.3512C28.228 20.2612 28.228 21.7382 27.3156 22.6505L24.2986 25.6675H37.3326C38.623 25.6675 39.666 26.7105 39.666 28.0008C39.666 29.2888 38.623 30.3341 37.3326 30.3341H24.119L27.0333 33.3885C27.9223 34.3218 27.8896 35.7965 26.9563 36.6878C26.023 37.5791 24.546 37.5418 23.657 36.6108M51.3326 28.0008C51.3326 15.1325 40.8653 4.66748 27.9993 4.66748C15.1333 4.66748 4.66595 15.1325 4.66595 28.0008C4.66595 40.8668 15.1333 51.3342 27.9993 51.3342C40.8653 51.3342 51.3326 40.8668 51.3326 28.0008" fill="#000C35" fill-opacity="0.2"/>
<mask id="mask0" mask-type="alpha" maskUnits="userSpaceOnUse" x="4" y="4" width="48" height="48">
<path fill-rule="evenodd" clip-rule="evenodd" d="M23.657 36.6108L16.979 29.6108C16.8786 29.5058 16.8296 29.3752 16.7526 29.2585C16.6686 29.1325 16.5683 29.0205 16.51 28.8805C16.3956 28.5982 16.3326 28.2995 16.3326 28.0008C16.3326 27.6952 16.3956 27.3918 16.5123 27.1072C16.6313 26.8225 16.8016 26.5635 17.0186 26.3488L24.0163 19.3512C24.9286 18.4388 26.4056 18.4388 27.3156 19.3512C28.228 20.2612 28.228 21.7382 27.3156 22.6505L24.2986 25.6675H37.3326C38.623 25.6675 39.666 26.7105 39.666 28.0008C39.666 29.2888 38.623 30.3341 37.3326 30.3341H24.119L27.0333 33.3885C27.9223 34.3218 27.8896 35.7965 26.9563 36.6878C26.023 37.5791 24.546 37.5418 23.657 36.6108M51.3326 28.0008C51.3326 15.1325 40.8653 4.66748 27.9993 4.66748C15.1333 4.66748 4.66595 15.1325 4.66595 28.0008C4.66595 40.8668 15.1333 51.3342 27.9993 51.3342C40.8653 51.3342 51.3326 40.8668 51.3326 28.0008" fill="white"/>
</mask>
<g mask="url(#mask0)">
</g>
</svg>
