<svg width="56" height="56" viewBox="0 0 56 56" fill="none" xmlns="http://www.w3.org/2000/svg">
<path fill-rule="evenodd" clip-rule="evenodd" d="M38.0226 22.4128L27.364 36.4128C26.9253 36.9891 26.2463 37.3298 25.523 37.3344H25.5066C24.7903 37.3344 24.1136 37.0031 23.6703 36.4384L17.9956 29.1888C17.2023 28.1761 17.3796 26.7084 18.3946 25.9151C19.4073 25.1194 20.8773 25.2968 21.6706 26.3141L25.481 31.1814L34.3103 19.5871C35.0896 18.5628 36.5526 18.3621 37.5816 19.1438C38.606 19.9254 38.8043 21.3884 38.0226 22.4128ZM28.0005 4.66772C15.1134 4.66772 4.66711 15.1141 4.66711 28.0011C4.66711 40.8857 15.1134 51.3344 28.0005 51.3344C40.8875 51.3344 51.3338 40.8857 51.3338 28.0011C51.3338 15.1141 40.8875 4.66772 28.0005 4.66772Z" fill="#6FD748"/>
<mask id="mask0" mask-type="alpha" maskUnits="userSpaceOnUse" x="4" y="4" width="48" height="48">
<path fill-rule="evenodd" clip-rule="evenodd" d="M38.0226 22.4128L27.364 36.4128C26.9253 36.9891 26.2463 37.3298 25.523 37.3344H25.5066C24.7903 37.3344 24.1136 37.0031 23.6703 36.4384L17.9956 29.1888C17.2023 28.1761 17.3796 26.7084 18.3946 25.9151C19.4073 25.1194 20.8773 25.2968 21.6706 26.3141L25.481 31.1814L34.3103 19.5871C35.0896 18.5628 36.5526 18.3621 37.5816 19.1438C38.606 19.9254 38.8043 21.3884 38.0226 22.4128ZM28.0005 4.66772C15.1134 4.66772 4.66711 15.1141 4.66711 28.0011C4.66711 40.8857 15.1134 51.3344 28.0005 51.3344C40.8875 51.3344 51.3338 40.8857 51.3338 28.0011C51.3338 15.1141 40.8875 4.66772 28.0005 4.66772Z" fill="white"/>
</mask>
<g mask="url(#mask0)">
</g>
</svg>
