<svg width="48" height="30" viewBox="0 0 48 30" fill="none" xmlns="http://www.w3.org/2000/svg">
<path d="M17.0586 29H0.613281V0.445312H17.0586V5.40625H6.66797V11.6758H16.3359V16.6367H6.66797V24H17.0586V29ZM48.3672 29H40.6719L28.25 7.39844H28.0742C28.3216 11.2135 28.4453 13.9349 28.4453 15.5625V29H23.0352V0.445312H30.6719L43.0742 21.832H43.2109C43.0156 18.1211 42.918 15.4974 42.918 13.9609V0.445312H48.3672V29Z" fill="white"/>
</svg>
