<?xml version="1.0" encoding="utf-8"?>
<!-- Generator: Adobe Illustrator 18.0.0, SVG Export Plug-In . SVG Version: 6.00 Build 0)  -->
<!DOCTYPE svg PUBLIC "-//W3C//DTD SVG 1.1//EN" "http://www.w3.org/Graphics/SVG/1.1/DTD/svg11.dtd">
<svg version="1.1" id="Layer_1" xmlns="http://www.w3.org/2000/svg" xmlns:xlink="http://www.w3.org/1999/xlink" x="0px" y="0px"
	 viewBox="0 0 45 45" enable-background="new 0 0 45 45" xml:space="preserve">
	<style type="text/css">
			@import "../default/default/svg.css";
	</style>
	 <script type="text/javascript">
         <![CDATA[
             if(window.parent && window.parent.Wincor && window.parent.Wincor.UI && window.parent.Wincor.UI.Content) {
                 let styleRes = window.parent.Wincor.UI.Content.StyleResourceResolver;
                 if(styleRes) {
                 	let style = document.getElementsByTagName("style")[0];
                   	style.innerHTML = style.innerHTML.replace("default/svg.css", styleRes.type() + "svg.css");
                    styleRes = null;
                 }
             }
         ]]>
    </script>
<g class="shadowGroup1">
	
		<line fill="none" stroke="#000000" stroke-linecap="round" stroke-miterlimit="10" enable-background="new    " x1="7" y1="44" x2="44" y2="7"/>
	
		<line fill="none" stroke="#000000" stroke-linecap="round" stroke-miterlimit="10" enable-background="new    " x1="44" y1="44" x2="7" y2="7"/>
</g>
<g class="shadowGroup2">
	
		<line fill="none" stroke="#000000" stroke-linecap="round" stroke-miterlimit="10" enable-background="new    " x1="6" y1="43" x2="43" y2="6"/>
	
		<line fill="none" stroke="#000000" stroke-linecap="round" stroke-miterlimit="10" enable-background="new    " x1="43" y1="43" x2="6" y2="6"/>
</g>
<g class="shadowGroup3">
	
		<line fill="none" stroke="#000000" stroke-linecap="round" stroke-miterlimit="10" enable-background="new    " x1="5" y1="42" x2="42" y2="5"/>
	
		<line fill="none" stroke="#000000" stroke-linecap="round" stroke-miterlimit="10" enable-background="new    " x1="42" y1="42" x2="5" y2="5"/>
</g>
<g>
	<line id="line1" class="strokeColor" stroke-linecap="round" stroke-miterlimit="10" x1="4" y1="41" x2="41" y2="4"/>
	<line id="line2" class="strokeColor" stroke-linecap="round" stroke-miterlimit="10" x1="41" y1="41" x2="4" y2="4"/>
</g>

    <script type="text/javascript">
        <![CDATA[
            let id = this.frameElement && this.frameElement.parentElement ? this.frameElement.parentElement.id : "";
            if(id === "buttonCancel" || id === "buttonCancelPopup") {
                document.getElementById("line1").setAttribute("class", "strokeColor07");
                document.getElementById("line2").setAttribute("class", "strokeColor07");
            }
            else if(id === "buttonReturnCard" || id === "buttonCorrect" || id === "buttonCorrectPopup") {
                document.getElementById("line1").setAttribute("class", "strokeColor02");
                document.getElementById("line2").setAttribute("class", "strokeColor02");
            }
        ]]>
    </script>

</svg>
