{
  "LocalizeProxy": {
    "service": "servicemocks/wn.UI.Service.LocalizeServiceMock",
    "interface": {
      "SERVICE_EVENTS": {
        "type": "object",
        "keys": ["LANGUAGE_CHANGED"],
        "writable": false
      },
      "currentLanguage": {
        "type": "string",
        "writable": false
      },
      "currentLanguageName": {
        "type": "string",
        "writable": false
      },
      "getText": {
        "type": "function",
        "callbackArgumentIndex": 1
      },
      "setLanguage": {
        "type": "function",
        "callbackArgumentIndex": 1
      },
      "updateTexts": {
        "type": "function"
      },
      "getInstalledLanguages": {
        "type": "function"
      },
      "getLanguageMapping": {
        "type": "function"
      },
      "getLanguageSpecifications": {
        "type": "function"
      },
      "getUsedProperties": {
        "type": "function"
      },
      "cleanTranslationTexts": {
        "type": "function"
      },
      "updateJSONData": {
        "type": "function"
      }
    }
  }
}