{
  "ViewProxy": {
    "service": "servicemocks/wn.UI.Service.ViewServiceMock",
    "interface": {
      "viewContext": {
        "type": "object",
        "keys": [
          "viewKey",
          "viewURL",
          "viewConfig",
          "viewID"
        ]
      },
      "SERVICE_EVENTS": {
        "type": "object",
        "keys": [
          "NAVIGATE_SPA",
          "VIEW_CLOSING",
          "VIEW_BEFORE_CHANGE",
          "VIEW_PREPARED",
          "TURN_ACTIVE",
          "CONTENT_UPDATE",
          "VIEW_ACTIVATED",
          "VIEW_USERINTERACTION_TIMEOUT",
          "STYLE_TYPE_CHANGED",
          "POPUP_ACTIVATED",
          "POPUP_DEACTIVATED",
          "SHUTDOWN",
          "SUSPEND",
          "RESUME"
        ],
        "writable": false
      },
      "EVENT_UIRESULT": {
        "type": "object",
        "keys": [
          "service",
          "eventName",
          "viewID",
          "UIResult"
        ]
      },
      "Expand_StringDefines": {
        "attributes": [
          "UIRESULT_OK",
          "UIRESULT_TIMEOUT_USER",
          "UIRESULT_CANCEL_USER",
          "UIRESULT_CANCEL_SW",
          "UIRESULT_ERROR_VIEW",
          "UIRESULT_CANCEL_SW_ERROR"
        ],
        "type": "string",
        "writable": false
      },
      "Expand_Numbers": {
        "attributes": [
          "messageTimeout",
          "immediateTimeout",
          "endlessTimeout",
          "confirmationTimeout",
          "inputTimeout",
          "pinentryTimeout"
        ],
        "type": "number",
        "writable": false
      },
      "Expand_Booleans": {
        "attributes": [
          "isTimeoutQuestionConfigured",
          "isCancelQuestionConfigured",
          "cacheHTML"
        ],
        "type": "boolean",
        "writable": true
      },
      "currentStyleType": {
        "type": "string"
      },
      "currentStyleTypeByStylesheetKey": {
        "type": "string"
      },
      "currentVendor": {
        "type": "string"
      },
      "currentResolution": {
        "type": "string"
      },
      "viewSetName": {
        "type": "string"
      },
      "CONTENT_FRAME_NAME": {
        "type": "string"
      },
      "isSuspended": {
        "type": "boolean",
        "writable": false
      },
      "Expand_StandardFunctions": {
        "attributes": [
          "display",
          "prepare",
          "activate",
          "offlineHandling",
          "endView",
          "fireActivated",
          "firePopupNotification",
          "fireContentUpdated",
          "firePrepared",
          "refreshTimeout",
          "getTimeoutValue",
          "clearTimeout",
          "setViewContext",
          "loadViewSet",
          "onError",
          "cancel"
        ],
        "type": "function"
      },
      "swapLocation": {
        "type": "function"
      },
      "resizeWindow": {
        "type": "function",
        "callbackArgumentIndex": 1,
        "shadowValue": "if (typeof arguments[1] === 'function') var cb = arguments[1]; window.setTimeout(cb, 1);"
      },
      "navigate": {
        "type": "function"
      },
      "bringToFront": {
        "type": "function"
      },
      "readConfiguration": {
        "type": "function"
      },
      "getUsedProperties": {
        "type": "function"
      },
      "suspend": {
        "type": "function"
      },
      "resume": {
        "type": "function"
      },
      "contentRunning": {
        "type": "boolean",
        "writable": false,
        "serviceEvent": true
      },
      "updateJSONData": {
        "type": "function"
      },
      "updateCurrent": {
        "type": "function"
      }
    }
  }
}