{
    "defaultPlugIn": "Default",
    "registeredPlugins": [
        "AdaHideScreenQuestion",
        "CardInsertion",
        "CardPresentation",
        "IdleLoopPresentation",
        "DocumentScanning",
        "DocumentScanResult",
        "DepositResult",
        "DepositNotesInsertion",
        "DepositCoinsInsertion",
        "DepositNotesProcessingWait",
        "DepositNotesRollback",
        "DepositCoinsRollback",
        "DepositChequesMediaInInfo",
        "DepositChequesReadingChequesWait",
        "DepositChequesPresentMediaInfo",
        "DepositChequesPleaseWait",
        "DepositChequesResult",
        "DepositStorageProcessingWait",
        "DepositNotesRemovalIO",
        "DepositNotesRemovalInput",
        "DepositNotesRemovalOutput",
        "DepositEnvelopePresentation",
        "FastCashPreferenceAmountInput",
        "LanguageSelection",
        "SignatureRequest",
        "SignatureInputTouch",
        "MenuSelection",
        "MenuSelectionFee",
        "PinEntry",
        "PinChangePinEntry",
        "PinChangePinConfirmation",
        "WithdrawalAmountSelection",
        "WithdrawalAlternativeAmountInput",
        "WithdrawalAlternativeAmountSelection",
        "WithdrawalCoinsDispensing",
        "WithdrawalNotesDispenseInfo",
        "WithdrawalMixtureSelection",
        "WithdrawalNotesAndReceiptPresentation",
        "WithdrawalCoinsAndReceiptPresentation",
        "WithdrawalNotesAndCoinsAndReceiptPresentation",
        "WithdrawalNotesAndPartialCoinsAndReceiptPresentation",
        "WithdrawalMultiBundleNotesPresentation",
        "WithdrawalMultiBundleNotesAndCoinsPresentation",
        "PrestagedSecureCodeInput",
        "AccountSelection",
        "AssistanceDepositChequesApprovalInfo",
        "AssistanceLimitApprovalInfo",
        "AssistanceSupportInfo",
        "TransactionEndWait"
    ]
}