{
  "FormatProxy": {
    "service": "service/wn.UI.Service.FormatService",
    "interface": {
      "format": {
        "type": "function",
        "callbackArgumentIndex": 2
      },
      "bankingContext": {
        "type": "object"
      }
    }
  }
}