{
  "JournalProxy": {
    "service": "service/wn.UI.Service.JournalService",
    "interface": {
      "MSG_NUMBERS": {
        "type": "object",
        "keys": ["MSG_AJAX_REQUEST", "MSG_VIEW_DISPLAY", "MSG_VIEW_INTERACTION", "MSG_VIEW_RESULT", "MSG_BROWSER_VERSION"],
        "writable": false
      },
      "write": {
        "type": "function",
        "callbackArgumentIndex": 1
      }
    }
  }
}