{
    "viewsPath": "views/",
    "componentsPath": "views/components/",
    "modulesPath": "views/script/",
    "startModule": "shell",
    "initialRoute": "welcome",
    "offlineSpaRoute": "offlinespa",
    "//": "Add new view names to the list, configure route and/or set individual route/moduleId. Note: 'name' must be unique and corresponding to a physical view.",
    "routes": [
        { "name": "shell", "route": "", "moduleId": "", "nav": false },
        { "name": "welcome", "route": "", "moduleId": "", "nav": true },
        { "name": "outofservice", "route": "", "moduleId": "", "nav": true },
        { "name": "offlinespa", "route": "", "moduleId": "", "nav": true },
        { "name": "message", "route": "", "moduleId": "", "nav": true },
        { "name": "question", "route": "", "moduleId": "", "nav": true },
        { "name": "questionerror", "route": "", "moduleId": "", "nav": true },
        { "name": "questionrecibe", "route": "", "moduleId": "", "nav": true },
        { "name": "questionwarning", "route": "", "moduleId": "", "nav": true },
        { "name": "questionsuccessfulltransaction", "route": "", "moduleId": "", "nav": true },
        { "name": "questionaccountbalance", "route": "", "moduleId": "", "nav": true },
        { "name": "selection", "route": "", "moduleId": "", "nav": true },
        { "name": "idlepresentation", "route": "", "moduleId": "", "nav": true },
        { "name": "pinentry", "route": "", "moduleId": "", "nav": true },
        { "name": "pinentryets", "route": "", "moduleId": "", "viewType": "touch", "nav": true },
        { "name": "pleasewait", "route": "", "moduleId": "", "nav": true },
        { "name": "transactionprogress", "route": "", "moduleId": "", "nav": true },
        { "name": "chipreading", "route": "", "moduleId": "", "nav": true },
        { "name": "idlelooppresentationfassil", "route": "", "moduleId": "", "nav": true },
        { "name": "chipread", "route": "", "moduleId": "", "nav": true },
        { "name": "cardremove", "route": "", "moduleId": "", "nav": true },
        { "name": "incorrectpin", "route": "", "moduleId": "", "nav": true },
        { "name": "accountselection", "route": "", "moduleId": "", "nav": true },
        { "name": "amountselection", "route": "", "moduleId": "", "nav": true },
        { "name": "adaadjustment", "route": "", "moduleId": "", "viewType": "softkey", "nav": true },
        { "name": "adainformation", "route": "", "moduleId": "", "viewType": "softkey", "nav": true },
        { "name": "emvapplicationselection", "route": "", "moduleId": "", "nav": true },
        { "name": "prepaidproviderselection", "route": "", "moduleId": "", "nav": true },
        { "name": "depositresult", "route": "", "moduleId": "", "nav": true },
        { "name": "amountentry", "route": "", "moduleId": "", "nav": true },
        { "name": "numericentry", "route": "", "moduleId": "", "nav": true },
        { "name": "accountinformation", "route": "", "moduleId": "", "nav": true },
        { "name": "cardanimations", "route": "", "moduleId": "", "nav": true },
        { "name": "depositanimations", "route": "", "moduleId": "", "nav": true },
        { "name": "printeranimations", "route": "", "moduleId": "", "nav": true },
        { "name": "genericimage", "route": "", "moduleId": "", "nav": true },
        { "name": "withdrawalanimations", "route": "", "moduleId": "", "nav": true },
        { "name": "billsplitting", "route": "", "moduleId": "", "nav": true },
        { "name": "billselection", "route": "", "moduleId": "", "nav": true },
        { "name": "depositchequesresult", "route": "", "moduleId": "", "nav": true },
        { "name": "depositchequesanimations", "route": "", "moduleId": "", "nav": true },
        { "name": "menupreferences", "route": "", "moduleId": "", "viewType": "touch", "nav": true },
        { "name": "depositenvelopeanimations", "route": "", "moduleId": "", "nav": true },
        { "name": "scancodeanimations", "route": "", "moduleId": "", "nav": true },
        { "name": "billpaymentselection", "route": "", "moduleId": "", "nav": true },
        { "name": "checkboxes", "route": "", "moduleId": "", "nav": true },
        { "name": "chiptransactions", "route": "", "moduleId": "", "nav": true },
        { "name": "formentry", "route": "", "moduleId": "", "nav": true },
        { "name": "receipt", "route": "", "moduleId": "", "nav": true },
        { "name": "mobiletransaction", "route": "", "moduleId": "", "nav": true },
        { "name": "scannedimageviewer", "route": "", "moduleId": "", "nav": true },
        { "name": "signaturepad", "route": "", "moduleId": "", "nav": true },
        { "name": "videoassistance", "route": "", "moduleId": "", "nav": true },
        { "name": "outofserviceadditionalinfos", "route": "", "moduleId": "", "nav": true },
        { "name": "dualchoiceselection", "route": "", "moduleId": "", "nav": true },

        { "name": "fassilwelcome", "route": "", "moduleId": "", "nav": true },
        { "name": "fassilmenupreferences", "route": "", "moduleId": "", "nav": true }

    ]
}