<?xml version="1.0" encoding="utf-8"?>
<!-- Generator: Adobe Illustrator 18.0.0, SVG Export Plug-In . SVG Version: 6.00 Build 0)  -->
<!DOCTYPE svg PUBLIC "-//W3C//DTD SVG 1.1//EN" "http://www.w3.org/Graphics/SVG/1.1/DTD/svg11.dtd">
<svg version="1.1" id="Layer_1" xmlns="http://www.w3.org/2000/svg" xmlns:xlink="http://www.w3.org/1999/xlink" x="0px" y="0px"
	 viewBox="0 0 45 45" enable-background="new 0 0 45 45" xml:space="preserve">
	<style type="text/css">
			@import "../default/default/svg.css";
	</style>
	 <script type="text/javascript">
         <![CDATA[
             if(window.parent && window.parent.Wincor && window.parent.Wincor.UI && window.parent.Wincor.UI.Content) {
                 let styleRes = window.parent.Wincor.UI.Content.StyleResourceResolver;
                 if(styleRes) {
                 	let style = document.getElementsByTagName("style")[0];
                   	style.innerHTML = style.innerHTML.replace("default/svg.css", styleRes.type() + "svg.css");
                    styleRes = null;
                 }
             }
         ]]>
    </script>
<g class="shadowGroup1">
	<line fill="none" stroke="#000000" stroke-miterlimit="10" enable-background="new    " x1="23.9" y1="2.8" x2="23.9" y2="44.9"/>
	<line fill="none" stroke="#000000" stroke-miterlimit="10" enable-background="new    " x1="44.9" y1="23.9" x2="2.8" y2="23.9"/>
</g>
<g class="shadowGroup2">
	<line fill="none" stroke="#000000" stroke-miterlimit="10" enable-background="new    " x1="22.9" y1="1.9" x2="22.9" y2="44"/>
	<line fill="none" stroke="#000000" stroke-miterlimit="10" enable-background="new    " x1="44" y1="22.9" x2="1.9" y2="22.9"/>
</g>
<g class="shadowGroup3">
	<line fill="none" stroke="#000000" stroke-miterlimit="10" enable-background="new    " x1="22" y1="0.9" x2="22" y2="43.1"/>
	<line fill="none" stroke="#000000" stroke-miterlimit="10" enable-background="new    " x1="43.1" y1="22" x2="0.9" y2="22"/>
</g>
<g>
	<line class="strokeColor" stroke-miterlimit="10" x1="21.1" y1="0" x2="21.1" y2="42.1"/>
	<line class="strokeColor" stroke-miterlimit="10" x1="42.1" y1="21.1" x2="0" y2="21.1"/>
</g>
</svg>
