<?xml version="1.0" encoding="utf-8"?>
<!-- Generator: Adobe Illustrator 17.1.0, SVG Export Plug-In . SVG Version: 6.00 Build 0)  -->
<!DOCTYPE svg PUBLIC "-//W3C//DTD SVG 1.1//EN" "http://www.w3.org/Graphics/SVG/1.1/DTD/svg11.dtd">
<svg version="1.1" id="Layer_1" xmlns="http://www.w3.org/2000/svg" xmlns:xlink="http://www.w3.org/1999/xlink" x="0px" y="0px"
	 viewBox="-0.5 -0.2 174 394" enable-background="new -0.5 -0.2 174 394" xml:space="preserve">
    <style type="text/css">
        @import "../default/default/svg.css";
    </style>
<path opacity="0.6" d="M166,6v380H6V6H166 M171,1H1v390h170V1L171,1z"/>
<path opacity="0.2" d="M167,7v380H7V7H167 M172,2H2v390h170V2L172,2z"/>
<path opacity="0.1" d="M167.5,7.8v380H7.5V7.8H167.5 M172.5,2.8H2.5v390h170V2.8L172.5,2.8z"/>
<path id="valueColor01" fill="#95BDD4" d="M165,5v380H5V5H165 M170,0H0v390h170V0L170,0z"/>
<rect x="2.5" y="2.5" fill="#DAE8ED" width="165" height="385"/>
<rect id="valueColor02" x="0.1" y="0" fill="#95BDD4" width="15.8" height="390"/>
<g>
	<defs>
		<polygon id="SVGID_1_" points="0,390 0.1,0 170,0 170,390 		"/>
	</defs>
	<clipPath id="SVGID_2_">
		<use xlink:href="#SVGID_1_"  overflow="visible"/>
	</clipPath>
	<g opacity="0.6" clip-path="url(#SVGID_2_)">
		<polyline fill="none" stroke="#95BDD4" stroke-width="0.5" stroke-miterlimit="10" points="163.5,-11.1 163.5,-11.1 186.2,11.6 
			163.5,34.3 163.5,34.3 186.2,57 163.5,79.6 163.5,79.6 186.2,102.3 163.5,125 163.5,125 186.2,147.7 163.5,170.4 163.5,170.4 
			186.2,193.1 163.5,215.8 163.5,215.8 186.2,238.5 163.5,261.2 163.5,261.2 186.2,283.9 163.5,306.6 163.5,306.6 186.2,329.3 
			163.5,352 163.5,352 186.2,374.7 163.5,397.4 163.5,397.4 		"/>
		<polyline fill="none" stroke="#95BDD4" stroke-width="0.5" stroke-miterlimit="10" points="157.1,-11.1 157.1,-11.1 179.8,11.6 
			157.1,34.3 157.1,34.3 179.8,57 157.1,79.6 157.1,79.6 179.8,102.3 157.1,125 157.1,125 179.8,147.7 157.1,170.4 157.1,170.4 
			179.8,193.1 157.1,215.8 157.1,215.8 179.8,238.5 157.1,261.2 157.1,261.2 179.8,283.9 157.1,306.6 157.1,306.6 179.8,329.3 
			157.1,352 157.1,352 179.8,374.7 157.1,397.4 157.1,397.4 		"/>
		<polyline fill="none" stroke="#95BDD4" stroke-width="0.5" stroke-miterlimit="10" points="150.6,-11.1 150.6,-11.1 173.3,11.6 
			150.6,34.3 150.6,34.3 173.3,57 150.6,79.6 150.6,79.6 173.3,102.3 150.6,125 150.6,125 173.3,147.7 150.6,170.4 150.6,170.4 
			173.3,193.1 150.6,215.8 150.6,215.8 173.3,238.5 150.6,261.2 150.6,261.2 173.3,283.9 150.6,306.6 150.6,306.6 173.3,329.3 
			150.6,352 150.6,352 173.3,374.7 150.6,397.4 150.6,397.4 		"/>
		<polyline fill="none" stroke="#95BDD4" stroke-width="0.5" stroke-miterlimit="10" points="144.1,-11.1 144.1,-11.1 166.8,11.6 
			144.1,34.3 144.1,34.3 166.8,57 144.1,79.6 144.1,79.6 166.8,102.3 144.1,125 144.1,125 166.8,147.7 144.1,170.4 144.1,170.4 
			166.8,193.1 144.1,215.8 144.1,215.8 166.8,238.5 144.1,261.2 144.1,261.2 166.8,283.9 144.1,306.6 144.1,306.6 166.8,329.3 
			144.1,352 144.1,352 166.8,374.7 144.1,397.4 144.1,397.4 		"/>
		<polyline fill="none" stroke="#95BDD4" stroke-width="0.5" stroke-miterlimit="10" points="137.7,-11.1 137.7,-11.1 160.4,11.6 
			137.7,34.3 137.7,34.3 160.4,57 137.7,79.6 137.7,79.6 160.4,102.3 137.7,125 137.7,125 160.4,147.7 137.7,170.4 137.7,170.4 
			160.4,193.1 137.7,215.8 137.7,215.8 160.4,238.5 137.7,261.2 137.7,261.2 160.4,283.9 137.7,306.6 137.7,306.6 160.4,329.3 
			137.7,352 137.7,352 160.4,374.7 137.7,397.4 137.7,397.4 		"/>
		<polyline fill="none" stroke="#95BDD4" stroke-width="0.5" stroke-miterlimit="10" points="131.2,-11.1 131.2,-11.1 153.9,11.6 
			131.2,34.3 131.2,34.3 153.9,57 131.2,79.6 131.2,79.6 153.9,102.3 131.2,125 131.2,125 153.9,147.7 131.2,170.4 131.2,170.4 
			153.9,193.1 131.2,215.8 131.2,215.8 153.9,238.5 131.2,261.2 131.2,261.2 153.9,283.9 131.2,306.6 131.2,306.6 153.9,329.3 
			131.2,352 131.2,352 153.9,374.7 131.2,397.4 131.2,397.4 		"/>
		<polyline fill="none" stroke="#95BDD4" stroke-width="0.5" stroke-miterlimit="10" points="124.8,-11.1 124.8,-11.1 147.5,11.6 
			124.8,34.3 124.8,34.3 147.5,57 124.8,79.6 124.8,79.6 147.5,102.3 124.8,125 124.8,125 147.5,147.7 124.8,170.4 124.8,170.4 
			147.5,193.1 124.8,215.8 124.8,215.8 147.5,238.5 124.8,261.2 124.8,261.2 147.5,283.9 124.8,306.6 124.8,306.6 147.5,329.3 
			124.8,352 124.8,352 147.5,374.7 124.8,397.4 124.8,397.4 		"/>
		<polyline fill="none" stroke="#95BDD4" stroke-width="0.5" stroke-miterlimit="10" points="118.3,-11.1 118.3,-11.1 141,11.6 
			118.3,34.3 118.3,34.3 141,57 118.3,79.6 118.3,79.6 141,102.3 118.3,125 118.3,125 141,147.7 118.3,170.4 118.3,170.4 141,193.1 
			118.3,215.8 118.3,215.8 141,238.5 118.3,261.2 118.3,261.2 141,283.9 118.3,306.6 118.3,306.6 141,329.3 118.3,352 118.3,352 
			141,374.7 118.3,397.4 118.3,397.4 		"/>
		<polyline fill="none" stroke="#95BDD4" stroke-width="0.5" stroke-miterlimit="10" points="111.8,-11.1 111.8,-11.1 134.5,11.6 
			111.8,34.3 111.8,34.3 134.5,57 111.8,79.6 111.8,79.6 134.5,102.3 111.8,125 111.8,125 134.5,147.7 111.8,170.4 111.8,170.4 
			134.5,193.1 111.8,215.8 111.8,215.8 134.5,238.5 111.8,261.2 111.8,261.2 134.5,283.9 111.8,306.6 111.8,306.6 134.5,329.3 
			111.8,352 111.8,352 134.5,374.7 111.8,397.4 111.8,397.4 		"/>
		<polyline fill="none" stroke="#95BDD4" stroke-width="0.5" stroke-miterlimit="10" points="105.4,-11.1 105.4,-11.1 128.1,11.6 
			105.4,34.3 105.4,34.3 128.1,57 105.4,79.6 105.4,79.6 128.1,102.3 105.4,125 105.4,125 128.1,147.7 105.4,170.4 105.4,170.4 
			128.1,193.1 105.4,215.8 105.4,215.8 128.1,238.5 105.4,261.2 105.4,261.2 128.1,283.9 105.4,306.6 105.4,306.6 128.1,329.3 
			105.4,352 105.4,352 128.1,374.7 105.4,397.4 105.4,397.4 		"/>
		<polyline fill="none" stroke="#95BDD4" stroke-width="0.5" stroke-miterlimit="10" points="98.9,-11.1 98.9,-11.1 121.6,11.6 
			98.9,34.3 98.9,34.3 121.6,57 98.9,79.6 98.9,79.6 121.6,102.3 98.9,125 98.9,125 121.6,147.7 98.9,170.4 98.9,170.4 121.6,193.1 
			98.9,215.8 98.9,215.8 121.6,238.5 98.9,261.2 98.9,261.2 121.6,283.9 98.9,306.6 98.9,306.6 121.6,329.3 98.9,352 98.9,352 
			121.6,374.7 98.9,397.4 98.9,397.4 		"/>
		<polyline fill="none" stroke="#95BDD4" stroke-width="0.5" stroke-miterlimit="10" points="92.5,-11.1 92.5,-11.1 115.2,11.6 
			92.5,34.3 92.5,34.3 115.2,57 92.5,79.6 92.5,79.6 115.2,102.3 92.5,125 92.5,125 115.2,147.7 92.5,170.4 92.5,170.4 115.2,193.1 
			92.5,215.8 92.5,215.8 115.2,238.5 92.5,261.2 92.5,261.2 115.2,283.9 92.5,306.6 92.5,306.6 115.2,329.3 92.5,352 92.5,352 
			115.2,374.7 92.5,397.4 92.5,397.4 		"/>
		<polyline fill="none" stroke="#95BDD4" stroke-width="0.5" stroke-miterlimit="10" points="86,-11.1 86,-11.1 108.7,11.6 86,34.3 
			86,34.3 108.7,57 86,79.6 86,79.6 108.7,102.3 86,125 86,125 108.7,147.7 86,170.4 86,170.4 108.7,193.1 86,215.8 86,215.8 
			108.7,238.5 86,261.2 86,261.2 108.7,283.9 86,306.6 86,306.6 108.7,329.3 86,352 86,352 108.7,374.7 86,397.4 86,397.4 		"/>
		<polyline fill="none" stroke="#95BDD4" stroke-width="0.5" stroke-miterlimit="10" points="79.5,-11.1 79.5,-11.1 102.2,11.6 
			79.5,34.3 79.5,34.3 102.2,57 79.5,79.6 79.5,79.6 102.2,102.3 79.5,125 79.5,125 102.2,147.7 79.5,170.4 79.5,170.4 102.2,193.1 
			79.5,215.8 79.5,215.8 102.2,238.5 79.5,261.2 79.5,261.2 102.2,283.9 79.5,306.6 79.5,306.6 102.2,329.3 79.5,352 79.5,352 
			102.2,374.7 79.5,397.4 79.5,397.4 		"/>
		<polyline fill="none" stroke="#95BDD4" stroke-width="0.5" stroke-miterlimit="10" points="73.1,-11.1 73.1,-11.1 95.8,11.6 
			73.1,34.3 73.1,34.3 95.8,57 73.1,79.6 73.1,79.6 95.8,102.3 73.1,125 73.1,125 95.8,147.7 73.1,170.4 73.1,170.4 95.8,193.1 
			73.1,215.8 73.1,215.8 95.8,238.5 73.1,261.2 73.1,261.2 95.8,283.9 73.1,306.6 73.1,306.6 95.8,329.3 73.1,352 73.1,352 
			95.8,374.7 73.1,397.4 73.1,397.4 		"/>
		<polyline fill="none" stroke="#95BDD4" stroke-width="0.5" stroke-miterlimit="10" points="66.6,-11.1 66.6,-11.1 89.3,11.6 
			66.6,34.3 66.6,34.3 89.3,57 66.6,79.6 66.6,79.6 89.3,102.3 66.6,125 66.6,125 89.3,147.7 66.6,170.4 66.6,170.4 89.3,193.1 
			66.6,215.8 66.6,215.8 89.3,238.5 66.6,261.2 66.6,261.2 89.3,283.9 66.6,306.6 66.6,306.6 89.3,329.3 66.6,352 66.6,352 
			89.3,374.7 66.6,397.4 66.6,397.4 		"/>
		<polyline fill="none" stroke="#95BDD4" stroke-width="0.5" stroke-miterlimit="10" points="60.2,-11.1 60.2,-11.1 82.9,11.6 
			60.2,34.3 60.2,34.3 82.9,57 60.2,79.6 60.2,79.6 82.9,102.3 60.2,125 60.2,125 82.9,147.7 60.2,170.4 60.2,170.4 82.9,193.1 
			60.2,215.8 60.2,215.8 82.9,238.5 60.2,261.2 60.2,261.2 82.9,283.9 60.2,306.6 60.2,306.6 82.9,329.3 60.2,352 60.2,352 
			82.9,374.7 60.2,397.4 60.2,397.4 		"/>
		<polyline fill="none" stroke="#95BDD4" stroke-width="0.5" stroke-miterlimit="10" points="53.7,-11.1 53.7,-11.1 76.4,11.6 
			53.7,34.3 53.7,34.3 76.4,57 53.7,79.6 53.7,79.6 76.4,102.3 53.7,125 53.7,125 76.4,147.7 53.7,170.4 53.7,170.4 76.4,193.1 
			53.7,215.8 53.7,215.8 76.4,238.5 53.7,261.2 53.7,261.2 76.4,283.9 53.7,306.6 53.7,306.6 76.4,329.3 53.7,352 53.7,352 
			76.4,374.7 53.7,397.4 53.7,397.4 		"/>
		<polyline fill="none" stroke="#95BDD4" stroke-width="0.5" stroke-miterlimit="10" points="47.2,-11.1 47.2,-11.1 69.9,11.6 
			47.2,34.3 47.2,34.3 69.9,57 47.2,79.6 47.2,79.6 69.9,102.3 47.2,125 47.2,125 69.9,147.7 47.2,170.4 47.2,170.4 69.9,193.1 
			47.2,215.8 47.2,215.8 69.9,238.5 47.2,261.2 47.2,261.2 69.9,283.9 47.2,306.6 47.2,306.6 69.9,329.3 47.2,352 47.2,352 
			69.9,374.7 47.2,397.4 47.2,397.4 		"/>
		<polyline fill="none" stroke="#95BDD4" stroke-width="0.5" stroke-miterlimit="10" points="40.8,-11.1 40.8,-11.1 63.5,11.6 
			40.8,34.3 40.8,34.3 63.5,57 40.8,79.6 40.8,79.6 63.5,102.3 40.8,125 40.8,125 63.5,147.7 40.8,170.4 40.8,170.4 63.5,193.1 
			40.8,215.8 40.8,215.8 63.5,238.5 40.8,261.2 40.8,261.2 63.5,283.9 40.8,306.6 40.8,306.6 63.5,329.3 40.8,352 40.8,352 
			63.5,374.7 40.8,397.4 40.8,397.4 		"/>
		<polyline fill="none" stroke="#95BDD4" stroke-width="0.5" stroke-miterlimit="10" points="34.3,-11.1 34.3,-11.1 57,11.6 
			34.3,34.3 34.3,34.3 57,57 34.3,79.6 34.3,79.6 57,102.3 34.3,125 34.3,125 57,147.7 34.3,170.4 34.3,170.4 57,193.1 34.3,215.8 
			34.3,215.8 57,238.5 34.3,261.2 34.3,261.2 57,283.9 34.3,306.6 34.3,306.6 57,329.3 34.3,352 34.3,352 57,374.7 34.3,397.4 
			34.3,397.4 		"/>
		<polyline fill="none" stroke="#95BDD4" stroke-width="0.5" stroke-miterlimit="10" points="27.9,-11.1 27.9,-11.1 50.6,11.6 
			27.9,34.3 27.9,34.3 50.6,57 27.9,79.6 27.9,79.6 50.6,102.3 27.9,125 27.9,125 50.6,147.7 27.9,170.4 27.9,170.4 50.6,193.1 
			27.9,215.8 27.9,215.8 50.6,238.5 27.9,261.2 27.9,261.2 50.6,283.9 27.9,306.6 27.9,306.6 50.6,329.3 27.9,352 27.9,352 
			50.6,374.7 27.9,397.4 27.9,397.4 		"/>
		<polyline fill="none" stroke="#95BDD4" stroke-width="0.5" stroke-miterlimit="10" points="21.4,-11.1 21.4,-11.1 44.1,11.6 
			21.4,34.3 21.4,34.3 44.1,57 21.4,79.6 21.4,79.6 44.1,102.3 21.4,125 21.4,125 44.1,147.7 21.4,170.4 21.4,170.4 44.1,193.1 
			21.4,215.8 21.4,215.8 44.1,238.5 21.4,261.2 21.4,261.2 44.1,283.9 21.4,306.6 21.4,306.6 44.1,329.3 21.4,352 21.4,352 
			44.1,374.7 21.4,397.4 21.4,397.4 		"/>
		<polyline fill="none" stroke="#95BDD4" stroke-width="0.5" stroke-miterlimit="10" points="14.9,-11.1 14.9,-11.1 37.6,11.6 
			14.9,34.3 14.9,34.3 37.6,57 14.9,79.6 14.9,79.6 37.6,102.3 14.9,125 14.9,125 37.6,147.7 14.9,170.4 14.9,170.4 37.6,193.1 
			14.9,215.8 14.9,215.8 37.6,238.5 14.9,261.2 14.9,261.2 37.6,283.9 14.9,306.6 14.9,306.6 37.6,329.3 14.9,352 14.9,352 
			37.6,374.7 14.9,397.4 14.9,397.4 		"/>
		<polyline fill="none" stroke="#95BDD4" stroke-width="0.5" stroke-miterlimit="10" points="8.5,-11.1 8.5,-11.1 31.2,11.6 
			8.5,34.3 8.5,34.3 31.2,57 8.5,79.6 8.5,79.6 31.2,102.3 8.5,125 8.5,125 31.2,147.7 8.5,170.4 8.5,170.4 31.2,193.1 8.5,215.8 
			8.5,215.8 31.2,238.5 8.5,261.2 8.5,261.2 31.2,283.9 8.5,306.6 8.5,306.6 31.2,329.3 8.5,352 8.5,352 31.2,374.7 8.5,397.4 
			8.5,397.4 		"/>
		<polyline fill="none" stroke="#95BDD4" stroke-width="0.5" stroke-miterlimit="10" points="2,-11.1 2,-11.1 24.7,11.6 2,34.3 
			2,34.3 24.7,57 2,79.6 2,79.6 24.7,102.3 2,125 2,125 24.7,147.7 2,170.4 2,170.4 24.7,193.1 2,215.8 2,215.8 24.7,238.5 2,261.2 
			2,261.2 24.7,283.9 2,306.6 2,306.6 24.7,329.3 2,352 2,352 24.7,374.7 2,397.4 2,397.4 		"/>
		<polyline fill="none" stroke="#95BDD4" stroke-width="0.5" stroke-miterlimit="10" points="-4.4,-11.1 -4.4,-11.1 18.3,11.6 
			-4.4,34.3 -4.4,34.3 18.3,57 -4.4,79.6 -4.4,79.6 18.3,102.3 -4.4,125 -4.4,125 18.3,147.7 -4.4,170.4 -4.4,170.4 18.3,193.1 
			-4.4,215.8 -4.4,215.8 18.3,238.5 -4.4,261.2 -4.4,261.2 18.3,283.9 -4.4,306.6 -4.4,306.6 18.3,329.3 -4.4,352 -4.4,352 
			18.3,374.7 -4.4,397.4 -4.4,397.4 		"/>
		<polyline fill="none" stroke="#95BDD4" stroke-width="0.5" stroke-miterlimit="10" points="-10.9,-11.1 -10.9,-11.1 11.8,11.6 
			-10.9,34.3 -10.9,34.3 11.8,57 -10.9,79.6 -10.9,79.6 11.8,102.3 -10.9,125 -10.9,125 11.8,147.7 -10.9,170.4 -10.9,170.4 
			11.8,193.1 -10.9,215.8 -10.9,215.8 11.8,238.5 -10.9,261.2 -10.9,261.2 11.8,283.9 -10.9,306.6 -10.9,306.6 11.8,329.3 
			-10.9,352 -10.9,352 11.8,374.7 -10.9,397.4 -10.9,397.4 		"/>
		<polyline fill="none" stroke="#95BDD4" stroke-width="0.5" stroke-miterlimit="10" points="-17.4,-11.1 -17.4,-11.1 5.3,11.6 
			-17.4,34.3 -17.4,34.3 5.3,57 -17.4,79.6 -17.4,79.6 5.3,102.3 -17.4,125 -17.4,125 5.3,147.7 -17.4,170.4 -17.4,170.4 5.3,193.1 
			-17.4,215.8 -17.4,215.8 5.3,238.5 -17.4,261.2 -17.4,261.2 5.3,283.9 -17.4,306.6 -17.4,306.6 5.3,329.3 -17.4,352 -17.4,352 
			5.3,374.7 -17.4,397.4 -17.4,397.4 		"/>
	</g>
</g>
<path d="M12.4,19.4l-8.1-1.5v-0.4l3,0.5v-1.2L7.7,17v1.2l1.4,0.3v-1.2l0.4,0.1v1.2l2.9,0.5V19.4z M4.3,19.2l8.1,1.5V21l-2.9-0.5v1.2
	l-0.4-0.1v-1.2l-1.4-0.3v1.2l-0.4-0.1V20l-3-0.6V19.2z"/>
<path d="M8.1,31.8c-1,0-3.1,0.2-3.1-1.7c0-1.8,2-1.7,3.1-1.7c1.4,0,3.1-0.1,3.1,1.7C11.2,32,8.8,31.8,8.1,31.8z M8.1,29.1
	c-2.4,0-2.5,0.4-2.5,1c0,0.7,0.3,1,2.5,1c2.3,0,2.5-0.4,2.5-1C10.7,29,9.3,29.1,8.1,29.1z"/>
<path d="M10.4,35.3L10,34.2l0.5-0.2l0.7,1.9H5.7v1.3H5.1v-3.4h0.5v1.5H10.4z"/>
<path d="M5.7,39.2l2.9,2.2C8.9,41.7,9.2,42,9.7,42c0.6,0,1-0.4,1-1c0-0.7-0.6-1.1-1.2-1.2l0.1-0.6c1,0.1,1.7,0.7,1.7,1.8
	c0,0.9-0.6,1.6-1.5,1.6c-0.6,0-1-0.3-1.5-0.6l-2.5-2v2.6H5.1v-3.3L5.7,39.2L5.7,39.2z"/>
<path d="M8.8,45.3l1.8,1.8v-2.5h0.5v3.3h-0.5l-1.7-1.7c0,0.9-0.5,1.7-1.5,1.7c-0.8,0-1.4-0.4-1.8-1.1c-0.3-0.5-0.5-1.1-0.5-2.2h0.6
	c0,1,0.1,1.4,0.3,1.7c0.3,0.5,0.8,1,1.4,1c0.8,0,1-0.7,1-1.3c0-0.2,0-0.5-0.1-0.7H8.8z"/>
<path d="M6.6,50l4.6,0.9L11,51.5l-3.9-0.8v1.6h3.1v0.6h-3v0.5H6.6v-0.5H5.1v-0.6h1.5V50z"/>
<path d="M11.1,55.6v3.1h-0.5v-2.5H8.8C8.9,56.5,9,56.8,9,57.1c0,0.9-0.6,1.6-1.6,1.6c-0.8,0-1.4-0.4-1.8-1.1
	c-0.3-0.5-0.5-1.1-0.5-2.3h0.6c0,0.7,0,1.4,0.3,1.8C6.3,57.6,6.8,58,7.5,58c0.6,0,1-0.4,1-1.1c0-0.4-0.1-0.7-0.3-1v-0.4L11.1,55.6
	L11.1,55.6z"/>
<path d="M10.2,63.6c0.2-0.3,0.5-0.6,0.5-1c0-1.1-1.4-1.2-2.2-1.2C8.8,61.8,9,62.2,9,62.6c0,1.2-1,1.6-2,1.6c-1.1,0-2-0.6-2-1.7
	c0-1.5,1.9-1.6,3-1.6c1.2,0,3.2,0.2,3.2,1.8c0,0.5-0.2,1-0.5,1.3L10.2,63.6z M5.6,62.5c0,0.7,0.6,1.1,1.4,1.1c0.7,0,1.4-0.2,1.4-1
	c0-0.4-0.3-0.8-0.6-1.1C5.9,61.5,5.6,62,5.6,62.5z"/>
<path d="M10.6,69v-2.5h0.5v3.3L5,67.1l0.2-0.5L10.6,69z"/>
<path d="M6.7,75c-1,0-1.6-0.8-1.6-1.7c0-1,0.6-1.7,1.6-1.7c0.8,0,1.2,0.5,1.6,1.2c0.3-0.5,0.8-1,1.5-1c0.9,0,1.5,0.6,1.5,1.5
	s-0.7,1.5-1.5,1.5c-0.7,0-1.1-0.5-1.5-1C7.9,74.5,7.5,75,6.7,75z M6.6,72.2c-0.6,0-1,0.5-1,1.1s0.4,1.1,1,1.1c0.7,0,1-0.6,1.3-1.1
	C7.6,72.8,7.4,72.2,6.6,72.2z M9.7,74.2c0.5,0,1-0.3,1-0.9s-0.4-0.9-1-0.9s-0.8,0.5-1.1,0.9C8.9,73.7,9.1,74.2,9.7,74.2z"/>
<path d="M6.1,77.6c-0.3,0.3-0.5,0.6-0.5,1c0,1.1,1.4,1.2,2.2,1.2c-0.3-0.4-0.5-0.7-0.5-1.2c0-1.1,0.9-1.5,1.9-1.5c1.1,0,2,0.6,2,1.7
	c0,1.6-1.9,1.6-3,1.6C7,80.4,5,80.2,5,78.6c0-0.5,0.2-1,0.5-1.3L6.1,77.6z M10.7,78.7c0-0.7-0.6-1.1-1.4-1.1c-0.7,0-1.4,0.2-1.4,1
	c0,0.4,0.3,0.8,0.6,1.1C10.3,79.8,10.7,79.3,10.7,78.7z"/>
<path d="M8.1,112.6c-1,0-3.1,0.2-3.1-1.7c0-1.8,2-1.7,3.1-1.7c1.4,0,3.1-0.1,3.1,1.7C11.2,112.8,8.8,112.6,8.1,112.6z M8.1,109.9
	c-2.4,0-2.5,0.4-2.5,1c0,0.7,0.3,1,2.5,1c2.3,0,2.5-0.4,2.5-1C10.7,109.8,9.3,109.9,8.1,109.9z"/>
<path d="M10.4,116.1L10,115l0.5-0.2l0.7,1.9H5.7v1.3H5.1v-3.4h0.5v1.5C5.6,116.1,10.4,116.1,10.4,116.1z"/>
<path d="M5.7,120l2.9,2.2c0.4,0.3,0.6,0.5,1.1,0.5c0.6,0,1-0.4,1-1c0-0.7-0.6-1.1-1.2-1.2l0.1-0.6c1,0.1,1.7,0.7,1.7,1.8
	c0,0.9-0.6,1.6-1.5,1.6c-0.6,0-1-0.3-1.5-0.6l-2.5-2v2.6H5.1V120H5.7z"/>
<path d="M8.8,126.1l1.8,1.8v-2.5h0.5v3.3h-0.5L8.9,127c0,0.9-0.5,1.7-1.5,1.7c-0.8,0-1.4-0.4-1.8-1.1c-0.3-0.5-0.5-1.1-0.5-2.2h0.6
	c0,1,0.1,1.4,0.3,1.7c0.3,0.5,0.8,1,1.4,1c0.8,0,1-0.7,1-1.3c0-0.2,0-0.5-0.1-0.7C8.3,126.1,8.8,126.1,8.8,126.1z"/>
<path d="M6.6,130.8l4.6,0.9l-0.2,0.6l-3.9-0.8v1.6h3.1v0.6h-3v0.5H6.6v-0.5H5.1v-0.6h1.5V130.8z"/>
<path d="M11.1,136.4v3.1h-0.5V137H8.8c0.1,0.3,0.2,0.6,0.2,0.9c0,0.9-0.6,1.6-1.6,1.6c-0.8,0-1.4-0.4-1.8-1.1
	c-0.3-0.5-0.5-1.1-0.5-2.3h0.6c0,0.7,0,1.4,0.3,1.8c0.3,0.5,0.8,0.9,1.5,0.9c0.6,0,1-0.4,1-1.1c0-0.4-0.1-0.7-0.3-1v-0.4h2.9V136.4z
	"/>
<path d="M10.2,144.4c0.2-0.3,0.5-0.6,0.5-1c0-1.1-1.4-1.2-2.2-1.2c0.3,0.4,0.5,0.7,0.5,1.2c0,1.2-1,1.6-2,1.6c-1.1,0-2-0.6-2-1.7
	c0-1.5,1.9-1.6,3-1.6c1.2,0,3.2,0.2,3.2,1.8c0,0.5-0.2,1-0.5,1.3L10.2,144.4z M5.6,143.3c0,0.7,0.6,1.1,1.4,1.1c0.7,0,1.4-0.2,1.4-1
	c0-0.4-0.3-0.8-0.6-1.1C5.9,142.3,5.6,142.8,5.6,143.3z"/>
<path d="M10.6,149.8v-2.5h0.5v3.3L5,147.9l0.2-0.5L10.6,149.8z"/>
<path d="M6.7,155.8c-1,0-1.6-0.8-1.6-1.7c0-1,0.6-1.7,1.6-1.7c0.8,0,1.2,0.5,1.6,1.2c0.3-0.5,0.8-1,1.5-1c0.9,0,1.5,0.6,1.5,1.5
	s-0.7,1.5-1.5,1.5c-0.7,0-1.1-0.5-1.5-1C7.9,155.3,7.5,155.8,6.7,155.8z M6.6,153c-0.6,0-1,0.5-1,1.1s0.4,1.1,1,1.1
	c0.7,0,1-0.6,1.3-1.1C7.6,153.6,7.4,153,6.6,153z M9.7,155c0.5,0,1-0.3,1-0.9c0-0.6-0.4-0.9-1-0.9s-0.8,0.5-1.1,0.9
	C8.9,154.6,9.1,155,9.7,155z"/>
<path d="M6.1,158.4c-0.3,0.3-0.5,0.6-0.5,1c0,1.1,1.4,1.2,2.2,1.2c-0.3-0.4-0.5-0.7-0.5-1.2c0-1.1,0.9-1.5,1.9-1.5
	c1.1,0,2,0.6,2,1.7c0,1.6-1.9,1.6-3,1.6C7,161.2,5,161,5,159.4c0-0.5,0.2-1,0.5-1.3L6.1,158.4z M10.7,159.5c0-0.7-0.6-1.1-1.4-1.1
	c-0.7,0-1.4,0.2-1.4,1c0,0.4,0.3,0.8,0.6,1.1C10.3,160.6,10.7,160.1,10.7,159.5z"/>
<path d="M8.1,166.6c-1,0-3.1,0.2-3.1-1.7c0-1.8,2-1.7,3.1-1.7c1.4,0,3.1-0.1,3.1,1.7C11.2,166.8,8.8,166.6,8.1,166.6z M8.1,163.9
	c-2.4,0-2.5,0.4-2.5,1c0,0.7,0.3,1,2.5,1c2.3,0,2.5-0.4,2.5-1C10.7,163.8,9.3,163.9,8.1,163.9z"/>
<path d="M10.4,170.1L10,169l0.5-0.2l0.7,1.9H5.7v1.3H5.1v-3.4h0.5v1.5H10.4z"/>
<path d="M5.7,174l2.9,2.2c0.4,0.3,0.6,0.5,1.1,0.5c0.6,0,1-0.4,1-1c0-0.7-0.6-1.1-1.2-1.2l0.1-0.6c1,0.1,1.7,0.7,1.7,1.8
	c0,0.9-0.6,1.6-1.5,1.6c-0.6,0-1-0.3-1.5-0.6l-2.5-2v2.6H5.1V174H5.7z"/>
<path d="M8.8,180.1l1.8,1.8v-2.5h0.5v3.3h-0.5L8.9,181c0,0.9-0.5,1.7-1.5,1.7c-0.8,0-1.4-0.4-1.8-1.1c-0.3-0.5-0.5-1.1-0.5-2.2h0.6
	c0,1,0.1,1.4,0.3,1.7c0.3,0.5,0.8,1,1.4,1c0.8,0,1-0.7,1-1.3c0-0.2,0-0.5-0.1-0.7H8.8z"/>
<path d="M6.6,184.8l4.6,0.9l-0.2,0.6l-3.9-0.8v1.6h3.1v0.6h-3v0.5H6.6v-0.5H5.1v-0.6h1.5V184.8z"/>
<path d="M8.1,231.3c-1,0-3.1,0.2-3.1-1.7c0-1.8,2-1.7,3.1-1.7c1.4,0,3.1-0.1,3.1,1.7C11.2,231.6,8.8,231.3,8.1,231.3z M8.1,228.6
	c-2.4,0-2.5,0.4-2.5,1c0,0.7,0.3,1,2.5,1c2.3,0,2.5-0.4,2.5-1C10.7,228.5,9.3,228.6,8.1,228.6z"/>
<path d="M10.4,234.9l-0.4-1.1l0.5-0.2l0.7,1.9H5.7v1.3H5.1v-3.4h0.5v1.5H10.4z"/>
<path d="M5.7,238.8l2.9,2.2c0.4,0.3,0.6,0.5,1.1,0.5c0.6,0,1-0.4,1-1c0-0.7-0.6-1.1-1.2-1.2l0.1-0.6c1,0.1,1.7,0.7,1.7,1.8
	c0,0.9-0.6,1.6-1.5,1.6c-0.6,0-1-0.3-1.5-0.6l-2.5-2v2.6H5.1v-3.3H5.7z"/>
<path d="M8.8,244.9l1.8,1.8v-2.5h0.5v3.3h-0.5l-1.7-1.7c0,0.9-0.5,1.7-1.5,1.7c-0.8,0-1.4-0.4-1.8-1.1c-0.3-0.5-0.5-1.1-0.5-2.2h0.6
	c0,1,0.1,1.4,0.3,1.7c0.3,0.5,0.8,1,1.4,1c0.8,0,1-0.7,1-1.3c0-0.2,0-0.5-0.1-0.7H8.8z"/>
<path d="M135.5,18.7v0.6l-4.7,0.1V19l3.9-0.1l0,0l-2.3-0.8l2.3-0.8l0,0l-3.9-0.1v-0.5l4.7,0.1v0.6l-2,0.7L135.5,18.7z"/>
<path d="M131.8,21.6l-1.1-0.3l0.2-0.5l3.6,1.1v0.6l-3.6,1.1l-0.2-0.5l1.1-0.3V21.6z M133.9,22.3l-1.7-0.5v1L133.9,22.3z"/>
<path d="M130.7,25.5l0.2-0.4l1.8,1.1l1.6-1l0.2,0.4l-1.4,0.9l1.4,0.9l-0.2,0.4l-1.6-1l-1.8,1.1l-0.2-0.4l1.6-1L130.7,25.5z"/>
<path d="M135.5,35.5v0.6l-4.7,0.1v-0.5l3.9-0.1l0,0l-2.3-0.8l2.3-0.8l0,0l-3.9-0.1v-0.5l4.7,0.1v0.6l-2,0.7L135.5,35.5z"/>
<path d="M134.5,38.4H132c-0.5,0-0.8,0.2-0.8,0.6c0,0.6,0.3,0.7,0.8,0.7h2.5v0.5h-2.7c-0.5,0-1-0.3-1-1.1s0.5-1.1,1-1.1h2.7V38.4z"/>
<path d="M132,42.5c-0.4,0.1-0.8,0.3-0.8,0.8c0,0.4,0.2,0.7,0.6,0.7c0.4,0,0.6-0.4,0.7-0.7c0.2-0.5,0.4-1,1.1-1c0.6,0,1,0.5,1,1.1
	s-0.4,1-0.9,1.1l-0.1-0.4c0.4-0.1,0.6-0.3,0.6-0.7c0-0.3-0.2-0.6-0.5-0.6s-0.4,0.2-0.6,0.5l-0.3,0.8c-0.2,0.3-0.5,0.5-0.9,0.5
	c-0.7,0-1.1-0.5-1.1-1.2s0.4-1.1,1.1-1.2L132,42.5z"/>
<path d="M134,47.2v-1h0.4v2.5H134v-1h-3.2v-0.5H134z"/>
<path d="M134.5,50.7V53H134v-1.8h-1.1v1.5h-0.4v-1.5h-1.3V53h-0.4v-2.3H134.5z"/>
<path d="M134.5,54.8V56c0,0.6-0.3,1.1-1,1.1c-0.4,0-0.9-0.3-1-0.7l-1.5,0.9l-0.2-0.4l1.7-0.9v-0.7h-1.6v-0.5
	C130.9,54.8,134.5,54.8,134.5,54.8z M132.8,55.9c0,0.5,0.3,0.8,0.7,0.8c0.3,0,0.6-0.2,0.6-0.6v-0.8h-1.2v0.6H132.8z"/>
<path d="M133.8,59.2L133.8,59.2l-3-0.1v-0.5l3.6,0.1v0.6l-1.6,0.7l1.6,0.7v0.6l-3.6,0.1V61l3-0.1l0,0l-1.9-0.8L133.8,59.2z"/>
<path d="M131.8,63.6l-1.1-0.3l0.2-0.5l3.6,1.1v0.6l-3.6,1.1l-0.2-0.5l1.1-0.3V63.6z M133.9,64.3l-1.7-0.5v1L133.9,64.3z"/>
<path d="M134.5,67.2v0.6l-3.1,1.4l0,0h0.9h2.1v0.5h-3.6v-0.6l3.1-1.4l0,0h-1h-2.1v-0.5H134.5z"/>
<path d="M134.5,71.4V72l-3.1,1.4l0,0h0.9h2.1v0.5h-3.6v-0.6l3.1-1.4l0,0h-1h-2.1v-0.5H134.5z"/>
<path d="M127.1,16.9v0.5h-2v1.4h2v0.5h-4.7v-0.5h2.3v-1.4h-2.3v-0.5H127.1z"/>
<path d="M126.1,21.3v2.3h-0.4v-1.8h-1.1v1.5h-0.4v-1.5h-1.3v1.8h-0.4v-2.3H126.1z"/>
<path d="M122.8,25.7v0.5h2.8v-0.5h0.4v1.5h-0.4v-0.5h-2.8v0.5h-0.4v-1.5H122.8z"/>
<path d="M126.1,29.4V30l-3.1,1.4l0,0h0.9h2.1v0.5h-3.6v-0.6l3.1-1.4l0,0h-1h-2.1v-0.5H126.1z"/>
<path d="M125.6,35.4v-1.7h0.4v2.5l-3.2-1.9v2h-0.4v-2.7L125.6,35.4z"/>
<path d="M124.5,38.3v1.6H124v-1.6H124.5z"/>
<path d="M127.1,42v0.6l-3.9,1.4l0,0h1h2.9v0.5h-4.7v-0.6l3.9-1.4l0,0h-1.1h-2.9V42H127.1z"/>
<path d="M122.8,46.7v0.5h2.8v-0.5h0.4v1.5h-0.4v-0.5h-2.8v0.5h-0.4v-1.5H122.8z"/>
<path d="M122.3,50.7l0.2-0.4l1.8,1.1l1.6-1l0.2,0.4l-1.4,0.9l1.4,0.9l-0.2,0.4l-1.6-1l-1.8,1.1l-0.2-0.4l1.6-1L122.3,50.7z"/>
<path d="M126.1,54.6v1.2c0,1-0.4,1.5-1.8,1.5c-1.1,0-1.9-0.2-1.9-1.5v-1.2h0.4V55h2.8v-0.4H126.1z M122.8,55.4v0.5
	c0,0.6,0.4,0.9,1.4,0.9c1.1,0,1.4-0.3,1.4-0.9v-0.5H122.8z"/>
<path d="M124.2,61.3c-0.3,0-1.9,0-1.9-1.3c0-0.6,0.4-1.3,1.9-1.3s1.9,0.7,1.9,1.3S125.7,61.3,124.2,61.3z M124.2,59.2
	c-0.5,0-1.4,0.1-1.4,0.8s0.9,0.8,1.4,0.8s1.4-0.1,1.4-0.8S124.8,59.2,124.2,59.2z"/>
<path d="M126.1,63.2v1.2c0,0.6-0.3,1.1-1,1.1c-0.4,0-0.9-0.3-1-0.7l-1.5,0.9l-0.2-0.4l1.7-0.9v-0.7h-1.6v-0.5H126.1z M124.4,64.3
	c0,0.5,0.3,0.8,0.7,0.8c0.3,0,0.6-0.2,0.6-0.6v-0.8h-1.2L124.4,64.3L124.4,64.3z"/>
<path d="M126.1,67.6v2.3h-0.4v-1.8h-1.1v1.5h-0.4v-1.5h-1.7v-0.5H126.1z"/>
<path d="M124.5,71.9v1.6H124v-1.6H124.5z"/>
<path d="M127.1,75.9v1.3c0,0.5-0.4,1-1.2,1c-0.6,0-1.1-0.2-1.3-0.8l-2,1l-0.2-0.4l2.2-1.1v-0.5h-2.1v-0.5H127.1z M124.9,76.4V77
	c0,0.4,0.3,0.7,0.9,0.7s0.8-0.3,0.8-0.8v-0.6h-1.7V76.4z"/>
<path d="M122.8,80.3v0.5h2.8v-0.5h0.4v1.5h-0.4v-0.5h-2.8v0.5h-0.4v-1.5H122.8z"/>
<path d="M126.1,84v0.6L123,86l0,0h0.9h2.1v0.5h-3.6v-0.6l3.1-1.4l0,0h-1h-2.1V84H126.1z"/>
<path d="M122.7,90.7c-0.2-0.3-0.4-0.7-0.4-1.1c0-1.1,1-1.4,1.9-1.4s1.9,0.3,1.9,1.4c0,0.5-0.3,0.9-0.7,1.2l-0.3-0.4
	c0.3-0.2,0.5-0.4,0.5-0.8c0-0.7-0.9-0.8-1.5-0.8s-1.4,0.1-1.4,0.9c0,0.2,0.1,0.5,0.2,0.7h1v-0.9h0.4v1.3L122.7,90.7L122.7,90.7z"/>
<path d="M126.5,97.7l-0.3-0.9l0.4-0.1l0.6,1.5h-4.3v1h-0.4v-2.6h0.4v1.2L126.5,97.7L126.5,97.7z"/>
<path d="M118.3,16.8h0.4V18c0,0.9-0.4,1.5-2.3,1.5c-1,0-2.3-0.1-2.3-1.5v-1.2h0.4v0.4h3.8V16.8z M114.4,17.6V18c0,0.6,0.1,1,1.9,1
	s1.9-0.5,1.9-0.9v-0.5H114.4z"/>
<path d="M116.1,21.5V23h-0.4v-1.6h0.4V21.5z"/>
<path d="M116.8,25.7l1.4,1.4v-1.9h0.4v2.6h-0.4l-1.3-1.3c0,0.7-0.4,1.4-1.2,1.4c-0.6,0-1.1-0.3-1.4-0.8c-0.2-0.4-0.4-0.8-0.4-1.7
	h0.4c0,0.8,0.1,1.1,0.2,1.3c0.2,0.4,0.6,0.7,1.1,0.7c0.6,0,0.8-0.5,0.8-1c0-0.2,0-0.4-0.1-0.5h0.5V25.7z"/>
<path d="M116.8,29.9l1.4,1.4v-1.9h0.4V32h-0.4l-1.3-1.3c0,0.7-0.4,1.4-1.2,1.4c-0.6,0-1.1-0.3-1.4-0.8c-0.2-0.4-0.4-0.8-0.4-1.7h0.4
	c0,0.8,0.1,1.1,0.2,1.3c0.2,0.4,0.6,0.7,1.1,0.7c0.6,0,0.8-0.5,0.8-1c0-0.2,0-0.4-0.1-0.5h0.5V29.9z"/>
<path d="M118.1,34.7l-0.3-0.9l0.4-0.1l0.6,1.5h-4.3v1H114v-2.6h0.4v1.2h3.7V34.7z"/>
<path d="M116.3,40.4c-0.7,0-2.4,0.1-2.4-1.3s1.6-1.3,2.4-1.3c1.1,0,2.4-0.1,2.4,1.3C118.7,40.5,116.9,40.4,116.3,40.4z M116.3,38.2
	c-1.8,0-2,0.3-2,0.8s0.2,0.8,2,0.8s2-0.3,2-0.8C118.3,38.2,117.3,38.2,116.3,38.2z"/>
<path d="M117.9,44.1c0.2-0.2,0.3-0.4,0.3-0.7c0-0.8-1.1-0.9-1.7-0.9c0.2,0.3,0.4,0.6,0.4,0.9c0,0.9-0.7,1.2-1.5,1.2
	s-1.5-0.4-1.5-1.3c0-1.2,1.5-1.3,2.3-1.3c1,0,2.5,0.1,2.5,1.4c0,0.4-0.1,0.8-0.4,1L117.9,44.1z M114.4,43.3c0,0.6,0.5,0.8,1.1,0.8
	c0.5,0,1.1-0.2,1.1-0.8c0-0.3-0.2-0.6-0.5-0.9C114.6,42.4,114.4,42.8,114.4,43.3z"/>
<path d="M114,51.2v-0.5h4.7v1c0,0.8-0.4,1.3-1.2,1.3c-0.9,0-1.4-0.5-1.4-1.1v-0.7H114z M116.5,51.2v0.7c0,0.4,0.3,0.7,0.9,0.7
	s0.8-0.3,0.8-0.8v-0.5h-1.7V51.2z"/>
<path d="M115,55.2l-1.1-0.3l0.2-0.5l3.6,1.1v0.6l-3.6,1.1l-0.2-0.5l1.1-0.3V55.2z M117.1,55.9l-1.7-0.5v1L117.1,55.9z"/>
<path d="M117.7,58.8V60c0,1-0.4,1.5-1.8,1.5c-1.1,0-1.9-0.2-1.9-1.5v-1.2h0.4v0.4h2.8v-0.4H117.7z M114.4,59.6v0.5
	c0,0.6,0.4,0.9,1.4,0.9c1.1,0,1.4-0.3,1.4-0.9v-0.5H114.4z"/>
<path d="M117.7,63v1.2c0,1-0.4,1.5-1.8,1.5c-1.1,0-1.9-0.2-1.9-1.5V63h0.4v0.4h2.8V63H117.7z M114.4,63.8v0.5c0,0.6,0.4,0.9,1.4,0.9
	c1.1,0,1.4-0.3,1.4-0.9v-0.5C117.2,63.8,114.4,63.8,114.4,63.8z"/>
<path d="M117.7,67.5v2.3h-0.4V68h-1.1v1.5h-0.4V68h-1.3v1.8H114v-2.3H117.7z"/>
<path d="M117.7,71.6v1.2c0,0.6-0.3,1.1-1,1.1c-0.4,0-0.9-0.3-1-0.7l-1.5,0.9l-0.2-0.4l1.7-0.9v-0.7H114v-0.5H117.7z M116,72.7
	c0,0.5,0.3,0.8,0.7,0.8c0.3,0,0.6-0.2,0.6-0.6v-0.8H116V72.7z"/>
<path d="M114,75.6h0.4V76h2.8v-0.4h0.4v1.1c0,0.9-0.4,1.3-1,1.3c-0.3,0-0.6-0.1-0.8-0.4c-0.1,0.4-0.5,0.6-0.9,0.6
	c-0.7,0-1-0.4-1-1.2L114,75.6L114,75.6z M116.1,77c0,0.4,0.3,0.6,0.6,0.6c0.4,0,0.6-0.3,0.6-0.6v-0.5h-1.1L116.1,77L116.1,77z
	 M114.4,77c0,0.4,0.1,0.8,0.6,0.8c0.4,0,0.7-0.2,0.7-0.7v-0.7h-1.2L114.4,77L114.4,77z"/>
<path d="M115.8,82.3c-0.3,0-1.9,0-1.9-1.3c0-0.6,0.4-1.3,1.9-1.3s1.9,0.7,1.9,1.3C117.7,81.6,117.3,82.3,115.8,82.3z M115.8,80.2
	c-0.5,0-1.4,0.1-1.4,0.8s0.9,0.8,1.4,0.8s1.4-0.1,1.4-0.8S116.4,80.2,115.8,80.2z"/>
<path d="M117.7,84.2v1.2c0,0.6-0.3,1.1-1,1.1c-0.4,0-0.9-0.3-1-0.7l-1.5,0.9l-0.2-0.4l1.7-0.9v-0.7H114v-0.5H117.7z M116,85.3
	c0,0.5,0.3,0.8,0.7,0.8c0.3,0,0.6-0.2,0.6-0.6v-0.8H116V85.3z"/>
<path d="M117.7,88.2v0.6l-3.1,1.4l0,0h0.9h2.1v0.5H114v-0.6l3.1-1.4l0,0h-1H114v-0.5H117.7z"/>
<path d="M153.2,355.2c-1,0-3.1,0.2-3.1-1.7s2-1.7,3.1-1.7c1.4,0,3.1-0.1,3.1,1.7C156.3,355.4,153.9,355.2,153.2,355.2z M153.2,352.4
	c-2.4,0-2.5,0.4-2.5,1c0,0.7,0.3,1,2.5,1c2.3,0,2.5-0.4,2.5-1C155.7,352.4,154.4,352.4,153.2,352.4z"/>
<path d="M155.5,358.7l-0.4-1.1l0.5-0.2l0.7,1.9h-5.6v1.3h-0.5v-3.4h0.5v1.5L155.5,358.7L155.5,358.7z"/>
<path d="M150.8,362.6l2.9,2.2c0.4,0.3,0.6,0.5,1.1,0.5c0.6,0,1-0.4,1-1c0-0.7-0.6-1.1-1.2-1.2l0.1-0.6c1,0.1,1.7,0.7,1.7,1.8
	c0,0.9-0.6,1.6-1.5,1.6c-0.6,0-1-0.3-1.5-0.6l-2.5-2v2.6h-0.5v-3.3H150.8z"/>
<path d="M153.9,368.7l1.8,1.8V368h0.5v3.3h-0.5l-1.7-1.7c0,0.9-0.5,1.7-1.5,1.7c-0.8,0-1.4-0.4-1.8-1.1c-0.3-0.5-0.5-1.1-0.5-2.2
	h0.6c0,1,0.1,1.4,0.3,1.7c0.3,0.5,0.8,1,1.4,1c0.8,0,1-0.7,1-1.3c0-0.2,0-0.5-0.1-0.7L153.9,368.7L153.9,368.7z"/>
<line fill="none" stroke="#000000" stroke-width="0.75" stroke-miterlimit="10" x1="127.1" y1="211" x2="127.1" y2="295.9"/>
<line fill="none" stroke="#000000" stroke-width="0.75" stroke-miterlimit="10" x1="90.4" y1="16.5" x2="90.4" y2="273.4"/>
<line fill="none" stroke="#000000" stroke-width="0.75" stroke-miterlimit="10" x1="70.4" y1="16.5" x2="70.4" y2="372.4"/>
<line fill="none" stroke="#000000" stroke-width="0.75" stroke-miterlimit="10" x1="30.8" y1="16.5" x2="30.8" y2="372.4"/>
<g>
	<g>
		<path fill="#0000B3" d="M135.8,219.9c3.2-4,7.5,1.8,9.3,4c0.9,1.1,1.8,2.2,2.6,3.3c0.4,0.5,0.8,1,1.2,1.4c0.7,0.9,1.1,0.6,1.4,0.8
			c-6.1-2.5-13.3-2.4-19.7-3.6c-3.7-0.7-7.3-1.9-10.1-4.5c-2.6-2.3,4-3.6,5.6-2.9c1.6,0.7,3.1,2,4.4,3.1c4.1,3.6,7.3,8.1,10.6,12.3
			c0.2,0.3,1,0,0.9-0.3c-1-3.6-4.8-5.3-8.2-5.9c-0.2,0-1,0.1-0.7,0.5c1.4,2.1,3,3.7,5.1,5.2c1.1,0.8,3.1,0.9,0.4,0.1
			c-1.5-0.4-3.1-0.6-4.7-0.9c-0.2,0-1,0.1-0.7,0.5c1.6,2,3.5,3.4,5.6,4.8c0.3,0.2,4,2,1.4,1.9c-2-0.1-4.2-0.6-6.2-0.9
			c-0.2,0-1.1,0.2-0.7,0.5c1.2,0.9,2.5,1.7,3.7,2.5c1.4,0.9,4.1,2.1,1.8,2.2c-1.7,0.1-3.7,0.2-5.3,1c-3.7,1.8-2.6,4.3,0.1,6.7
			c0.3,0.3,1.2-0.1,0.9-0.4c-1.4-1.3-5.2-4.3,0.2-6.1c1.8-0.6,4-0.6,5.9-0.5c0.2,0,0.9-0.2,0.6-0.5c-1.4-1.5-4.2-4.3-6.3-4.6
			c2.5,0.4,5,0.9,7.5,0.7c0.2,0,0.8-0.3,0.4-0.6c-2.2-1.7-4.7-3.2-6.9-4.9c-3.4-2.8,3.8-0.2,4.9,0.2c0.3,0.1,1.1-0.3,0.7-0.5
			c-1.7-1-3.2-2-4.8-3.2c-0.5-0.4-1.8-2.5-2.4-2.7c1.9,0.4,3.7,1.5,5.2,2.7c0.8,0.6,3.1,3.2,1.4,1c-2.7-3.6-5.6-7.1-8.8-10.2
			c-3.9-3.8-10-7.6-13.3-1.1c0,0.1-0.1,0.2,0,0.2c7.7,8.4,21.9,5.4,31.6,9.4c0.2,0.1,1.2-0.1,0.8-0.5c-3.4-3.2-10.9-17.2-16.5-10.1
			C134.6,220.2,135.6,220.2,135.8,219.9L135.8,219.9z"/>
	</g>
</g>
<g>
	<g>
		<path fill="#0000B3" d="M144.2,261.4c3.5,3.4-1.1,4.8-4.2,4.3c-4.2-0.7-6.9-4-6.8-8.2c-0.3,0.1-0.6,0.2-1,0.3
			c1.7,5.4,0.2,10.7-2.6,15.4c-0.2,0.3,0.7,0.2,0.9,0c2.9-4.8,4.5-10.2,2.7-15.7c-0.1-0.3-1,0-1,0.3c0,5.4,4.3,8.6,9.5,8.6
			c3.4,0,6.6-2.2,3.5-5.3C144.9,260.8,144,261.2,144.2,261.4L144.2,261.4z"/>
	</g>
</g>
<g>
	<g>
		<path fill="#0000B3" d="M145.5,274.7c-4-1.9-10.2-3-13.7,0.6c-0.1,0.1-0.1,0.2,0,0.3c2,2.2,5,3.8,8.1,3.6c1.2-0.1,2.7-0.2,3.8-0.9
			c1-0.7,0.1-2.7-0.3-3.4c-0.2-0.4-1.1-0.1-1,0.3c0.4,0.8,0.6,1.3,0.6,2.3c0,1.5-3.6,1.2-4.3,1.1s-7-2.3-5.3-3.6
			c2.9-2.4,8.3-1.1,11.4,0.4C145.1,275.4,146,274.9,145.5,274.7L145.5,274.7z"/>
	</g>
</g>
<g>
	<g>
		<path fill="#0000B3" d="M150.7,282.7c-2.5-0.8-5.1-1.4-7.8-0.9c-0.2,0-0.7,0.3-0.5,0.6c1.5,2.1,3,3.3,5.6,3.7
			c0.4,0.1,1-0.5,0.4-0.7c-1.5-0.4-3-0.5-4.4-0.9c-0.3-0.1-1.1,0.2-0.6,0.6c0.9,0.8,1.8,1.7,1.8,3c0.1,1.4-1.5,2.2-2.6,2.6
			c-0.6,0.3-0.1,0.8,0.4,0.6c1.3-0.6,2.6-1.4,3-2.8c0.5-1.6-0.9-3-2-4c-0.2,0.2-0.4,0.4-0.6,0.6c1.5,0.4,3,0.5,4.4,0.9
			c0.1-0.2,0.3-0.5,0.4-0.7c-2.4-0.4-3.7-1.5-5.1-3.4c-0.2,0.2-0.3,0.4-0.5,0.6c2.5-0.4,4.9,0.1,7.3,0.9
			C150.6,283.5,151.3,282.9,150.7,282.7L150.7,282.7z"/>
	</g>
</g>
<g>
	<g>
		<path fill="#0000B3" d="M147.8,279.6c1,5.6,2.6,11,4,16.5c0.1,0.5,1.1,0.2,1-0.3c-1.4-5.5-3-10.9-4-16.5
			C148.6,278.8,147.7,279.1,147.8,279.6L147.8,279.6z"/>
	</g>
</g>
<g>
	<g>
		<path fill="#0000B3" d="M34.3,196.4c-0.1-2.3,4.8,4.5,5.2,5.5c0.6,1.3,0.8,2.9,0.2,4.2c-1.7,3.8-6.9-1.2-7.9-2.3
			c-1-1.1-3.1-2.2-0.7-1c1.5,0.7,3,1.5,4.4,2.4c1.5,0.9,2.9,2,4.2,3.2c2,1.9,3.9,6.9-1.6,7.1c-3.4,0.1-7-2.9-9.4-5
			c-0.8-0.7-1.5-1.5-2.1-2.4c-0.2-0.3,4.4,0.1,5,0.3c6.4,1.9,13.4,7.4,15.5,13.9c2.1,6.5-4.6,11.5-10.3,8.7
			c-4.8-2.3-8.5-6.9-11.7-11c-6.1-7.6-11.4-16.2-15.6-25c-0.2-0.4-1.1-0.1-1,0.3c3.4,7.1,7.6,13.9,12.1,20.3
			c4.1,5.9,10.7,15.9,18.6,17c6.8,0.9,10.6-6.5,8.2-12.3c-2.8-6.6-14-15.3-21.7-12.8c-0.2,0.1-0.5,0.2-0.4,0.5
			c2.5,4.4,10.6,10.7,15.8,7.1c6.9-4.8-8.3-12.3-11.2-13.6c-0.2-0.1-1.1,0.1-0.8,0.4c2.2,3.1,6.3,7.9,10.6,5.3
			c5.2-3.2-3.4-11.2-5.5-12.8c-0.3-0.2-0.8-0.1-0.9,0.2c-0.6,1.6,0,0,0.1,2C33.4,197,34.3,196.8,34.3,196.4L34.3,196.4z"/>
	</g>
</g>
<g>
	<g>
		<path fill="#0000B3" d="M34.6,238.5c-0.4,0.4-0.4,0.1-0.2,0.5c0.1,0.2,0.1,0.5,0.2,0.7c0.1,0.6,0.2,1.3,0.3,1.9
			c0.2,1.4,0.4,2.9,0.7,4.3c0.1,0.3,1,0,1-0.3c-0.4-2.1-0.5-4.3-1-6.5c-0.2-0.9-0.8-1.5-1.6-0.8C33.4,238.7,34.4,238.6,34.6,238.5
			L34.6,238.5z"/>
	</g>
</g>
<g>
	<g>
		<path fill="#0000B3" d="M35.8,249.9c3,1.2,5.5,2.8,7.8,5c1.5,1.4,6,6.2-1,5.7c-1.9-0.1-3.9-1-5.6-1.7c-0.2-0.1-1.1,0.2-0.8,0.4
			c2.4,1.7,4.9,3.2,7.1,5.2c-0.2,0.6-0.4,1.1-0.6,1.7c-1.9-0.3-3.6-0.9-5.3-1.9c-3.1-1.8,2.8,0.2,3.8,1c3.3,2.4,4.2,6.2,2.5,9.8
			c-2,4.1-6.5,2.9-9.6,1.5c-7.8-3.4-14.6-10.4-20.2-16.7c-0.2-0.2-1.1,0.1-0.9,0.4c6.2,7,15.3,16.9,25.1,18.1
			c3.5,0.4,5.7-1.7,7.2-4.7c3-6.1-5.3-11.2-10.3-11.3c-0.1,0-0.9,0.2-0.7,0.4c3.1,2.9,6.6,4,10.8,4c0.1,0,0.8-0.2,0.7-0.4
			c-1-1.7-2.3-2.9-3.9-4.2c-1.2-0.9-2.5-1.7-3.7-2.5c-1.4-0.9,1.7,0.8,2.2,1c2.8,0.8,5.1,0.5,7.4-1.1c0,0,0.1-0.1,0.1-0.2
			c-2.6-4.7-6.4-8-11.4-9.9C36.3,249.4,35.5,249.8,35.8,249.9L35.8,249.9z"/>
	</g>
</g>
<g>
	<g>
		<path fill="#0000B3" d="M36.7,283.3c2.6,7,6.9,17.4,15.3,18.7c0.2,0,0.8-0.1,0.8-0.4c-0.1-3.4-6-11.9-10-7.6
			c-2.8,3.2-1.3,6.7,0.9,9.7c1.3,1.9,3.1,3.4,4.7,5c2,1.8,0.1,0,0.8,0.1c-1.4-0.3-2.8-0.3-4.2-0.6c-0.2,0-0.8,0.1-0.8,0.3
			c-1.2,17.3-0.1,34.6-1.6,51.9c0,0.4,0.9,0.2,1-0.1c0.8-9,1-18.1,1-27.2c0-5.1,0-10.2,0.2-15.3c0.1-2.5,0.2-5,0.3-7.6
			c0.2-2.7,2.9-1.3,4.7-0.4c0.2,0.1,1.1-0.2,0.8-0.4c-3-2.7-5.9-5.4-7.8-9.1c-1.3-2.5-0.9-8.4,3.9-6.4c2.1,0.9,3.6,3.3,4.5,5.2
			c1.6,3.3-2.3,0.9-3.5,0.1c-1.7-1.2-3-2.9-4.2-4.5c-2.6-3.5-4.5-7.8-6-11.9C37.6,282.8,36.6,283,36.7,283.3L36.7,283.3z"/>
	</g>
</g>
<g>
	<g>
		<path fill="#0000B3" d="M49.8,299c2.9,12.3,3.1,24.8,4.1,37.3c0,0.2,1,0,1-0.3c-1-12.5-1.3-25.1-4.1-37.3
			C50.7,298.5,49.7,298.8,49.8,299L49.8,299z"/>
	</g>
</g>
<g>
	<g>
		<path fill="#0000B3" d="M94.2,287.8c5,1.5,9.4,4.2,13.7,7.1c0.2-0.2,0.4-0.4,0.5-0.6c-5-0.1-9.8-1.7-14.7-2.7
			c-0.5-0.1-1,0.6-0.3,0.7c4.9,0.9,9.7,2.6,14.7,2.7c0.2,0,1-0.3,0.5-0.6c-4.4-2.9-8.8-5.7-13.9-7.2C94.3,287,93.6,287.6,94.2,287.8
			L94.2,287.8z"/>
	</g>
</g>
<g>
	<g>
		<path fill="#0000B3" d="M107.5,306.8c2.7-1.3,2-3.4,0-5.2c-2.4-2.1-5.3-3.2-8.5-2.8c-1.9,0.2-3.9,1.5-2.6,3.5
			c1.6,2.5,4.7,4.1,7.5,4.9c0.3,0.1,1.1-0.4,0.6-0.5c-2.2-0.7-4.3-1.8-6-3.4c-1.3-1.2-2.6-3.3-0.2-3.9c2.7-0.7,5.1,0.3,7.3,1.8
			c1.6,1.1,4.4,3.7,1.5,5.1C106.5,306.7,107.1,307,107.5,306.8L107.5,306.8z"/>
	</g>
</g>
<g>
	<g>
		<path fill="#0000B3" d="M107.8,315c2.4-2.3-0.9-4.8-2.9-5.8c-2.3-1.2-5.2-1.5-7.5-0.2c-2.1,1.2-0.5,3.1,0.8,4.2
			c2,1.7,4.8,3,7.5,3.3c0.2,0,1.1-0.3,0.6-0.4c-2.1-0.2-4.1-1.2-5.9-2.3c-1.2-0.7-3.5-2.2-3.1-3.9c0.3-1.4,2.9-1.5,3.9-1.4
			c1.2,0.2,2.4,0.7,3.4,1.3c1.8,1,4.3,3.2,2.2,5.2C106.7,315.3,107.6,315.2,107.8,315L107.8,315z"/>
	</g>
</g>
<g>
	<g>
		<path fill="#0000B3" d="M99.6,316.9c-2.7-0.9-5.3-2.2-7.9-3.5c-0.4-0.2-1.2,0.3-0.7,0.6c2.6,1.3,5.3,2.6,8.1,3.6
			C99.5,317.7,100.2,317.1,99.6,316.9L99.6,316.9z"/>
	</g>
</g>
<g>
	<g>
		<path fill="#0000B3" d="M107.3,322.8c-1.2-0.4-2-0.9-3.2-0.4c-0.1,0-0.4,0.1-0.3,0.3c0.5,1.4,1.5,2.8,3.1,2.6
			c1.3-0.1,2.1-1.2,2.3-2.4c-0.3,0.1-0.6,0.1-1,0.2c0.3,0.6,0.3,1.6,0.3,2.2c0.1,0.7,0.2,1.1-0.6,1.4c-0.4,0.2-0.7,0.4-1,0.8v0.1
			c0.7,1.3,1,1.6,2.3,2.3c0.2,0.1,0.6,0,0.8-0.2c0.3-0.3,0.6-0.5,0.7-0.9c0.1-0.5-0.3-0.9-0.2-1.4c0.1-0.3-0.9-0.1-1,0.2
			c-0.3,0.8,0.5,1.4-0.3,2.1c0.3-0.1,0.5-0.1,0.8-0.2c-0.7-0.4-1.3-0.5-1.7-1.3c-0.7-1.3,0.6-1,1.1-1.8c0.4-0.5,0.2-1,0.1-1.6
			s0-1.5-0.3-2c-0.1-0.2-0.9,0-1,0.2c-0.1,0.9-0.6,2.1-1.7,1.8c-1-0.3-1.5-1.5-1.8-2.4c-0.1,0.1-0.2,0.2-0.3,0.3
			c0.6-0.3,1.5,0.3,2.1,0.5C106.7,323.3,107.6,322.9,107.3,322.8L107.3,322.8z"/>
	</g>
</g>
<g>
	<g>
		<path fill="#0000B3" d="M101.1,322.3c0.8,4.6,1.7,9.2,2.2,13.8c0,0.3,1,0.1,1-0.3c-0.5-4.6-1.4-9.2-2.2-13.8
			C102,321.7,101,321.9,101.1,322.3L101.1,322.3z"/>
	</g>
</g>
<g>
	<g>
		<path fill="#0000B3" d="M81.8,57c-1.5-1.7-3.9-2.9-6.2-2.6c-2,0.3-2.8,2.5-1.9,4.1c0.8,1.5,2.7,2.6,4.4,2.5
			c2.1-0.1,2.2-2.1,1.9-3.7c-0.3,0.1-0.6,0.2-1,0.3c0.7,2.4,1.7,4.7,1.8,7.2c0.2-0.1,0.5-0.2,0.7-0.4c-1.3,0.1-2.5,0.3-3.8-0.3
			c-0.2-0.1-1.1,0.2-0.8,0.4c1.5,1.4,3,2.8,3.9,4.6c0.3-0.1,0.5-0.2,0.8-0.4c-1.7-0.2-4.1-0.3-4.7,1.7c-0.7,2.3,2.3,4.1,4.1,4.5
			c0.1,0,0.9-0.1,0.8-0.4c-0.9-1.5-2.1-2.6-3.8-1.6c-2.2,1.2-1.7,4.9-0.8,6.6c0.2,0.3,1.1,0,1-0.3c-0.7-1.3-0.8-2.5-0.7-3.9
			c0.1-0.6,0.3-1.2,0.7-1.8c1-1.6,2.4,0.9,2.7,1.2c0.3-0.1,0.5-0.2,0.8-0.4c-2.9-0.6-6.3-6.1-0.6-5.3c0.1,0,0.9-0.1,0.8-0.4
			c-0.9-1.9-2.5-3.3-4-4.7c-0.3,0.1-0.6,0.3-0.8,0.4c1.4,0.6,2.7,0.4,4.2,0.4c0.2,0,0.7-0.1,0.7-0.4c-0.1-2.5-1.1-4.8-1.8-7.2
			c-0.1-0.3-1,0-1,0.3c0.3,1.5,0.2,3.5-1.9,2.7C76,60,75,59,74.5,58c-1-1.9,0.9-3.4,2.8-2.9c1.4,0.4,2.6,1.2,3.6,2.3
			C81.1,57.6,82,57.2,81.8,57L81.8,57z"/>
	</g>
</g>
<g>
	<g>
		<path fill="#0000B3" d="M91.5,97.5c1,0.1,1.4,0.2,2.3,0c0.1,0,0.5-0.1,0.4-0.3c-0.2-3.2-3.7-4.6-6.3-5.4c-3.6-1.2-7.6-1.6-11.1-3
			c-0.2-0.1-1,0.3-0.9,0.3c2.5,1.2,4.3,2.8,5.6,5.3c0.3-0.1,0.5-0.2,0.8-0.3c-3.5-0.1-6.7-1.4-10.1-1.9c-0.1,0-1,0.1-0.9,0.3
			c2,3,5.7,4.3,8.7,6.1c0.3-0.1,0.6-0.2,0.9-0.3c-1.7-0.6-6-2.4-7.5-0.3c-1.6,2.2,5.7,4.3,6.7,4.5c0.2,0,1-0.3,0.9-0.3
			c-2.2-1.2-4.3-1.4-6.7-0.7c0,0-0.4,0.1-0.3,0.2c1.7,2.3,4.3,3.6,6.4,5.3c0.2-0.1,0.4-0.2,0.6-0.3c-2.1,0.4-4.1,0.2-6.1-0.4
			c-0.2-0.1-1,0.3-0.9,0.3c2.1,1.1,3.9,2.2,5.3,4.1c0.3-0.1,0.6-0.2,0.9-0.3c-1.8-0.2-3.5,0.6-5.3,0.4c-0.1,0-1,0.1-0.9,0.3
			c0.5,1.4,1.3,2.4,2.3,3.4c0.2,0.2,1-0.2,0.9-0.3c-1-1-1.8-2-2.2-3.4c-0.3,0.1-0.6,0.2-0.9,0.3c1.8,0.2,3.5-0.6,5.3-0.4
			c0.1,0,1-0.1,0.9-0.3c-1.3-2-3.2-3.1-5.3-4.2c-0.3,0.1-0.6,0.2-0.9,0.3c2.2,0.7,4.4,0.8,6.7,0.4c0.1,0,0.7-0.2,0.6-0.3
			c-1.2-1-2.5-1.8-3.8-2.7c-0.6-0.4-1.2-0.9-1.7-1.4c0.5-1,1.1-1.4,2-1c0.8,0.2,1.5,0.5,2.2,0.9c0.3-0.1,0.6-0.2,0.9-0.3
			c-2.2-0.4-4.6-1.1-6.2-2.9c-2.4-2.8,4.6-0.8,5.3-0.5c0.2,0.1,1-0.2,0.9-0.3c-2.9-1.8-6.7-3-8.7-6c-0.3,0.1-0.6,0.2-0.9,0.3
			c3.5,0.5,6.8,1.8,10.3,1.9c0.1,0,0.9-0.1,0.8-0.3c-1.3-2.4-3.2-4.1-5.7-5.3c-0.3,0.1-0.6,0.2-0.9,0.3c3.1,1.2,6.5,1.7,9.6,2.5
			c2.9,0.8,7.5,2.1,7.7,5.8c0.1-0.1,0.3-0.2,0.4-0.3c-0.5,0.1-1,0.1-1.5,0C92.1,97.2,91.3,97.5,91.5,97.5L91.5,97.5z"/>
	</g>
</g>
<g>
	<g>
		<path fill="#0000B3" d="M79.5,119.5c1.7,0.3,3.3,0.2,2-2c-1.5-2.5-5.1-3.3-7.7-2.7c-0.1,0-0.7,0.2-0.5,0.4c2.9,6.2,12,8.2,17.9,10
			c0.2,0.1,1.1-0.2,0.7-0.5c-4.6-2.9-10.4-5.6-15.9-3.8c-0.1,0-0.5,0.2-0.4,0.4c1.1,2.4,3.2,3.5,5.5,4.3c0.4,0.2,0.9,0.3,1.4,0.4
			c2.1,0.6-2,0.3-2.1,0.3c-1.4-0.1-2.6-0.1-4,0.3c-0.1,0-0.5,0.2-0.4,0.4c0.6,2.8,2.8,4.2,5.6,4.3c0.1,0,0.9-0.2,0.6-0.5
			c-2.2-2.1-4.7-3.3-7.7-2.3c-0.2,0.1-0.4,0.1-0.4,0.4c0.1,2.7,1.2,4.6,3.1,6.5c0.2,0.2,1.2-0.1,0.9-0.4c-1.2-1.2-2.1-2.5-2.7-4.2
			c-0.5-1.4-0.6-2.5,2-2c1.5,0.3,2.8,1.4,3.9,2.4c0.2-0.2,0.4-0.3,0.6-0.5c-1.7-0.1-3-0.6-4.1-1.8c-2.1-2.3,1.2-2.2,2.7-2
			c1.4,0.2,2.5,0,3.8-0.7c0.2-0.1,0.3-0.3,0-0.4c-1.7-0.4-3.3-0.9-4.9-1.7c-0.8-0.4-1.3-0.9-1.9-1.5c-1.7-1.7,0.6-1.7,1.9-1.7
			c4.2-0.1,8.3,2.2,11.8,4.3c0.2-0.2,0.5-0.3,0.7-0.5c-5.8-1.7-14.7-3.7-17.6-9.7c-0.2,0.1-0.4,0.3-0.5,0.4c2.1-0.4,4,0,5.7,1.2
			c0.5,0.4,0.9,0.9,1.3,1.4c1.4,1.8,0.1,1.2-0.6,1.1C79.8,119,79,119.5,79.5,119.5L79.5,119.5z"/>
	</g>
</g>
<g>
	<g>
		<path fill="#0000B3" d="M80.7,138.5c0.1-2-2.2-5.2-4.5-4.6c-2.1,0.5-2.3,2.4-1,3.9c2,2.3,5.4,3.5,8.1,4.6c2.2,0.9,4.9,2,7.3,2.1
			c0.2,0,0.9-0.2,0.6-0.5c-5.7-7.4-16.5-6.5-24.8-7.3c-0.4,0-1,0.5-0.4,0.5c8.2,0.8,18.7-0.1,24.3,7.1c0.2-0.2,0.4-0.3,0.6-0.5
			c-3.5-0.1-7.6-2.2-10.7-3.7c-1.7-0.8-3.5-1.8-4.6-3.3c-1.2-1.5,0.6-2.9,2.2-1.8c1.1,0.8,2,2.2,1.9,3.6
			C79.7,139,80.7,138.8,80.7,138.5L80.7,138.5z"/>
	</g>
</g>
<g>
	<g>
		<path fill="#0000B3" d="M76,151.4c0.8,2.4,2.4,4.3,4.9,5.2c0.2,0.1,1,0,0.9-0.4c-0.7-2.4-4.8-6-7.3-3.8c-3.1,2.9,4.5,7.3,6.4,8.3
			c0.2,0.1,1.1-0.2,0.8-0.4c-2.2-2.1-4.8-3.4-7.8-2.6c-0.1,0-0.5,0.2-0.4,0.4c1.6,2.9,4.4,4.7,7.1,6.4c0.2,0.1,1.1-0.2,0.8-0.4
			c-1.8-1.7-3.9-2.8-6.3-1.9c-0.2,0.1-0.4,0.2-0.3,0.4c1.7,2.7,4.6,4.1,6.3,6.7c0.3-0.1,0.6-0.3,0.8-0.4c-1.4-0.5-2.8-0.4-4.2-0.7
			c-0.1,0-0.9,0.1-0.8,0.4c1,1.9,2.2,3.5,3.5,5.1c0.3-0.1,0.6-0.3,0.8-0.4c-1.9-1-4-1.2-5,0.9v0.1c1.6,1.8,6.6,3,5.4-1
			c-0.1-0.4-0.9-0.1-1,0.2c-1.2,3,0.5,6,1,9c0.2-0.1,0.4-0.3,0.7-0.4c-2.9-0.2-5-1.8-6.7-4c-0.3,0.1-0.6,0.3-0.8,0.4
			c7.6,5.1,3.2,16.3,1.5,23.3c-0.1,0.4,0.9,0.2,1-0.1c1.8-7.2,6.1-18.4-1.7-23.7c-0.2-0.1-1.1,0.1-0.8,0.4c1.8,2.4,4.2,4,7.2,4.2
			c0.2,0,0.7-0.1,0.7-0.4c-0.4-2.9-2.1-5.9-1-8.8c-0.3,0.1-0.6,0.1-1,0.2c0.5,1.8-0.6,2.1-2.1,1.4c-0.4-0.2-0.7-0.5-1.1-0.8
			c0.5-0.4,1-0.8,1.4-1.2c0.5,0.1,1.1,0.4,1.5,0.7c0.2,0.1,1.1-0.1,0.8-0.4c-1.3-1.6-2.5-3.2-3.5-5c-0.3,0.1-0.5,0.3-0.8,0.4
			c1.3,0.2,2.7,0.1,4,0.6c0.2,0.1,1.1-0.1,0.8-0.4c-1.1-1.6-2.6-2.7-4-3.9c-0.7-0.6-1.4-1.3-2-2.1c1-0.4,1.9-0.3,2.7,0.3
			c0.6,0.4,1.2,0.8,1.7,1.4c0.3-0.1,0.6-0.3,0.8-0.4c-1.9-1.2-3.7-2.5-5.3-4.1c-0.3-0.3-0.6-0.7-0.9-1.1c0.8-1,1.7-1.1,2.7-0.4
			c1.1,0.5,2.1,1.3,3,2.1c0.3-0.1,0.6-0.3,0.8-0.4c-2.4-1.3-5.4-3-6.6-5.6c-0.4-0.8-0.3-2.6,1.2-2.4c0.8,0.1,1.7,0.8,2.3,1.3
			c0.9,0.7,1.9,1.8,2.2,2.9c0.3-0.1,0.6-0.2,0.9-0.4c-2.3-0.8-3.9-2.7-4.7-5C76.9,150.8,75.9,151.1,76,151.4L76,151.4z"/>
	</g>
</g>
<g>
	<g>
		<path fill="#0000B3" d="M75.9,211.7c-0.8,12,0.8,24,2,35.9c1.5,14.1,1.6,28.3,1.8,42.5c0.2,13.3,0,26.7-0.4,40
			c-0.5,13.4-1.9,27-1,40.4c0.1,0.8,1.5,0.5,1.5-0.1c-0.9-12.8,0.4-25.7,0.9-38.5c0.5-13.9,0.7-27.9,0.5-41.9
			c-0.1-12.5-0.3-25.1-1.3-37.5c-1.1-13.6-3.5-27.2-2.5-40.9C77.4,210.8,75.9,211,75.9,211.7L75.9,211.7z"/>
	</g>
</g>
<g>
	<g>
		<path fill="#0000B3" d="M78.8,13.7C79,24.8,81.1,35.9,79.1,47c-0.1,0.4,1.4,0.2,1.4-0.2c2-11.1-0.1-22.3-0.3-33.5
			C80.2,13,78.8,13.2,78.8,13.7L78.8,13.7z"/>
	</g>
</g>
<rect id="valueColor03" x="137.7" y="16" fill="#95BDD4" width="16.2" height="35.2"/>
<rect id="valueColor04" x="137.7" y="53.8" fill="#95BDD4" width="16.2" height="58.2"/>
<g>
	<g>
		<path fill="#0000B3" d="M96.7,111.6c1-1.5,2.5-4.7,4.3-2.6c1.3,1.5,2.1,3.5,3,5.3c1.1,2.3,2.5,4.2,4.7,5.5
			c0.2,0.1,1.1-0.1,0.8-0.4c-1.3-1.8-4.2-2.6-6.1-3.4c-3.9-1.7-7.8-3.2-11.4-5.3c-3.2-1.9-7.1-5-4.5-9c0.6-0.9,1.5-1.6,2.3-2.3
			c1.9-1.6,3.1,1,4.1,2.2c2.3,3.2,3.8,7.1,5.1,10.8c1.2,3.4-4.8,2.1-3.9,5c0.5,1.7,3.7,1.3,4.9,0.8c1.2-0.5,0-0.2,0.3,1.7
			c0.4,2.9,1.5,5.8,2.7,8.5c1.4,3.1,3.8,6.8,7.6,6.8c0.2,0,0.7-0.1,0.7-0.4c-1.3-6.3-8.9-8.3-13.9-11c-0.2-0.1-1.1,0.2-0.8,0.4
			c1.4,1.1,7.3,8.4,2.8,6.6c-1.6-0.6-2.8-0.8-4.5-0.6c-0.1,0-0.6,0.2-0.6,0.4c0.7,2,1.9,3.2,3.4,4.7c3.3,3,0.5,1.3-2,0.7
			c-0.1,0-0.9,0.1-0.8,0.4c0.7,1.2,1.4,2.1,2.4,3.1c0.7,0.8,3.9,2.6,1.7,1.9c-1-0.3-2.6-0.1-3.4,0.7c-3.3,3-2.4,9.3-1.6,13.2
			c0.1,0.3,1,0.1,1-0.3c-0.8-3.8-2-15.7,5.2-12.4c0.2,0.1,1.1-0.1,0.8-0.4c-0.9-1.1-1.8-2.1-2.8-3c-3.1-3.1-0.8-2.1,2-1
			c0.2,0.1,1.1-0.1,0.8-0.4c-0.9-1.4-2-2.4-3.2-3.6c-3.5-3.2,1.5-2.5,3.7-1.8c0.2,0.1,0.8,0,0.9-0.3c0.1-1.5-0.1-2.4-0.8-3.8
			c-0.3-0.4-0.5-0.9-0.9-1.3c-1-1.5-1.9-1.5-3.1-2.1c3.8,2.1,7.9,3.4,11,6.6c2.7,2.7,0.7,3.7-1.7,1.3c-1.5-1.5-2.5-3.6-3.4-5.5
			c-1.4-3.1-2.4-6.5-2.5-9.9c0-0.3-0.8,0-0.9,0.1c-1.2,0.9-2.3,1-3.4,0.4c0.2-2.1,1.4-3.2,3.6-3c0.1,0,0.5-0.2,0.4-0.4
			c-1.9-5.7-4.1-12.5-9-16.4c-0.2-0.2-0.6-0.1-0.7,0c-2.6,1.7-5.9,4-5.2,7.5c0.7,3.3,5.1,5.4,7.7,6.8c4,2.1,8.3,3.6,12.4,5.5
			c0.7,0.4,1.5,0.7,2.1,1.2c1.7,1.2-1.5-2.6-1.8-3c-2.2-3.1-3-6.6-5.9-9.2c-0.2-0.2-0.7-0.1-0.8,0.1c-1.5,1.3-2.5,2.9-3.6,4.5
			C95.5,111.9,96.5,111.8,96.7,111.6L96.7,111.6z"/>
	</g>
</g>
<g>
	<g>
		<path fill="#0000B3" d="M113.4,169.5c-4.9-5-11.7-7.3-18.2-9.2c-0.7-0.2-1.7,0.8-0.8,1c6.3,1.8,13,4,17.8,8.8
			C112.5,170.7,113.9,170.1,113.4,169.5L113.4,169.5z"/>
	</g>
</g>
<g>
	<g>
		<path fill="#0000B3" d="M110.1,164.1c1.6,4.4,1.4,9.4-4.5,9.6c-3.9,0.2-7.9-2-10.8-4.5c-3.2-2.7-4.7-6.7-4.2-10.8
			c0.2-1.7,0.8-3.3,1.7-4.9c2.5-4.3,4.8,1,5.3,2.3c1.2,3.3,1.2,7.3,1.5,10.7c0.2,3.1,0.3,6.3,0.2,9.5c0,1.3,0.7,2.3-0.5,1.5
			c-0.8-0.5-1.6-0.8-2.5-1.1c-1.1-0.4-2.9-0.6-3.8,0.4c-1.7,2.1,2.9,4.8,4.4,4.9c1.3,0.1,3.4,0.1,2.3-1.7c-0.2-0.3-1.1,0-1,0.3
			c1.8,4.5,0.5,9.4,2.6,13.8c0.1,0.3,0.8,0,0.9-0.1c4.2-5.5-3.6-13.8-8.3-7.2c-2.5,3.5-0.9,9.2,0,12.9c1.4,5.2,3.6,10.2,6.1,15
			c0.2,0.3,1.1,0,1-0.3c-3.6-6.9-7.1-14.7-7.3-22.6c-0.1-2.1,0.4-4,1.6-5.7c3.3-4.6,6.5,1.4,7.1,3.9c-0.2-1.2,0,4-0.6,2.7
			s-0.6-2.8-0.8-4.2c-0.3-2.9-0.2-5.6-1.2-8.4c-0.3,0.1-0.6,0.2-1,0.3c-1.1,1-2.1,1-3.2,0c-0.8-0.7-1.3-1.5-1.6-2.4
			c-1.1-2.7,6,1.1,5.8,0.9c0.2,0.2,0.9,0,0.9-0.3c0.2-3.7,1.5-28.2-5.6-26.9c-6.1,1.1-6,10.8-3.3,14.9c3,4.5,9.1,8.2,14.7,7.6
			c5.9-0.6,6.9-5.2,5.1-10.3C111,163.6,110,163.9,110.1,164.1L110.1,164.1z"/>
	</g>
</g>

	    <script type="text/javascript">
            <![CDATA[
                let attr = this.frameElement.attributes['data-cheque-no'];
                let color;
                attr = attr && attr.value ? attr : { value: '2'}
                switch(attr.value) {
                    case "1": color = "#DA542E"; break;
                    case "2": color = "#a9c783"; break;
                    case "3": color = "#28a5e1"; break;
                    case "4": color = "#95BDD4"; break;
                }
                document.getElementById("valueColor01").setAttribute("fill", color);
                document.getElementById("valueColor02").setAttribute("fill", color);
                document.getElementById("valueColor03").setAttribute("fill", color);
                document.getElementById("valueColor04").setAttribute("fill", color);
            ]]>
        </script>
</svg>
